START AT Thu Mar 27 06:37:44 PM CET 2025
Now running panel ID: 1375
[1] "Now running panel ID: 1375"
[1] "Running on all chromosomes for panel ID: 1375"
[1] "Bidning all rows complete for panel ID: 1375"
[1] "Saving an original table with all columns"
# A tibble: 52 × 2
   clinvar_clnsig                       n
   <chr>                            <int>
 1 3.138526                             1
 2 Affects                             53
 3 Affects|association                  1
 4 Benign                           13930
 5 Benign/Likely_benign              4371
 6 Benign/Likely_benign|other           5
 7 Benign/Likely_benign|risk_factor     1
 8 Benign|association                   1
 9 Benign|other                         6
10 Benign|risk_factor                   1
# ℹ 42 more rows
…
