START AT Thu Mar 27 07:49:11 PM CET 2025
Now running panel ID: 1385
[1] "Now running panel ID: 1385"
[1] "Running on all chromosomes for panel ID: 1385"
[1] "Bidning all rows complete for panel ID: 1385"
[1] "Saving an original table with all columns"
# A tibble: 69 × 2
   clinvar_clnsig                               n
   <chr>                                    <int>
 1 Affects                                     90
 2 Affects|risk_factor                          1
 3 Benign                                   22177
 4 Benign/Likely_benign                      7208
 5 Benign/Likely_benign|association             1
 6 Benign/Likely_benign|drug_response           2
 7 Benign/Likely_benign|drug_response|other     1
 8 Benign/Likely_benign|other                   6
 9 Benign/Likely_benign|other|risk_factor       1
10 Benign/Likely_benign|risk_factor             1
# ℹ 59 more rows
…
