START AT Thu Mar 27 11:27:07 AM CET 2025
Now running panel ID: 175
[1] "Now running panel ID: 175"
[1] "Running on all chromosomes for panel ID: 175"
[1] "Bidning all rows complete for panel ID: 175"
[1] "Saving an original table with all columns"
# A tibble: 40 × 2
   clinvar_clnsig                                               n
   <chr>                                                    <int>
 1 Affects                                                      8
 2 Benign                                                    5421
 3 Benign/Likely_benign                                      1641
 4 Benign/Likely_benign|other                                   3
 5 Benign/Likely_benign|risk_factor                             1
 6 Benign|other                                                 1
 7 Conflicting_interpretations_of_pathogenicity              8299
 8 Conflicting_interpretations_of_pathogenicity|Affects         1
 9 Conflicting_interpretations_of_pathogenicity|association     1
10 Conflicting_interpretations_of_pathogenicity|other           6
# ℹ 30 more rows
…
