START AT Thu Mar 27 04:26:13 PM CET 2025
Now running panel ID: 774
[1] "Now running panel ID: 774"
[1] "Running on all chromosomes for panel ID: 774"
[1] "Bidning all rows complete for panel ID: 774"
[1] "Saving an original table with all columns"
# A tibble: 48 × 2
   clinvar_clnsig                                   n
   <chr>                                        <int>
 1 Affects                                         15
 2 Benign                                       10468
 3 Benign/Likely_benign                          3041
 4 Benign/Likely_benign|association                 1
 5 Benign/Likely_benign|other                       4
 6 Benign/Likely_benign|other|risk_factor           1
 7 Benign/Likely_benign|risk_factor                 1
 8 Benign|drug_response                             1
 9 Benign|other                                     1
10 Conflicting_interpretations_of_pathogenicity 25563
# ℹ 38 more rows
…
