START AT Thu Mar 27 04:45:59 PM CET 2025
Now running panel ID: 1109
[1] "Now running panel ID: 1109"
[1] "Running on all chromosomes for panel ID: 1109"
[1] "Bidning all rows complete for panel ID: 1109"
[1] "Saving an original table with all columns"
# A tibble: 54 × 2
   clinvar_clnsig                                   n
   <chr>                                        <int>
 1 Affects                                         37
 2 Benign                                       12101
 3 Benign/Likely_benign                          3978
 4 Benign/Likely_benign|other                       4
 5 Benign/Likely_benign|risk_factor                 1
 6 Benign|association                               1
 7 Benign|other                                     6
 8 Benign|protective                                1
 9 Benign|risk_factor                               1
10 Conflicting_interpretations_of_pathogenicity 19085
# ℹ 44 more rows
…
