START AT Thu Mar 27 05:38:56 PM CET 2025
Now running panel ID: 1344
[1] "Now running panel ID: 1344"
[1] "Running on all chromosomes for panel ID: 1344"
[1] "Bidning all rows complete for panel ID: 1344"
[1] "Saving an original table with all columns"
# A tibble: 61 × 2
   clinvar_clnsig                               n
   <chr>                                    <int>
 1 Affects                                     43
 2 Affects|association                          1
 3 Benign                                   15061
 4 Benign/Likely_benign                      4909
 5 Benign/Likely_benign|association             1
 6 Benign/Likely_benign|drug_response           2
 7 Benign/Likely_benign|drug_response|other     1
 8 Benign/Likely_benign|other                   5
 9 Benign/Likely_benign|other|risk_factor       1
10 Benign/Likely_benign|risk_factor             1
# ℹ 51 more rows
…
