START AT Thu Mar 27 06:18:14 PM CET 2025
Now running panel ID: 1370
[1] "Now running panel ID: 1370"
[1] "Running on all chromosomes for panel ID: 1370"
[1] "Bidning all rows complete for panel ID: 1370"
[1] "Saving an original table with all columns"
# A tibble: 51 × 2
   clinvar_clnsig                                               n
   <chr>                                                    <int>
 1 0.47671                                                      1
 2 Affects                                                     43
 3 Benign                                                   12913
 4 Benign/Likely_benign                                      3844
 5 Benign/Likely_benign|other                                   5
 6 Benign|association                                           1
 7 Benign|other                                                 6
 8 Benign|risk_factor                                           1
 9 Conflicting_interpretations_of_pathogenicity             25321
10 Conflicting_interpretations_of_pathogenicity|association     2
# ℹ 41 more rows
…
