START AT Thu Mar 27 11:25:35 AM CET 2025
Now running panel ID: 122
[1] "Now running panel ID: 122"
[1] "Running on all chromosomes for panel ID: 122"
[1] "Bidning all rows complete for panel ID: 122"
[1] "Saving an original table with all columns"
# A tibble: 51 × 2
   clinvar_clnsig                               n
   <chr>                                    <int>
 1 Affects                                     35
 2 Affects|association                          1
 3 Benign                                   11467
 4 Benign/Likely_benign                      3596
 5 Benign/Likely_benign|drug_response           2
 6 Benign/Likely_benign|drug_response|other     1
 7 Benign/Likely_benign|other                   5
 8 Benign|drug_response                         1
 9 Benign|other                                 2
10 Benign|risk_factor                           1
# ℹ 41 more rows
…
