START AT Thu Mar 27 05:40:14 PM CET 2025
Now running panel ID: 1345
[1] "Now running panel ID: 1345"
[1] "Running on all chromosomes for panel ID: 1345"
[1] "Bidning all rows complete for panel ID: 1345"
[1] "Saving an original table with all columns"
# A tibble: 50 × 2
   clinvar_clnsig                                               n
   <chr>                                                    <int>
 1 Affects                                                     23
 2 Benign                                                   12304
 3 Benign/Likely_benign                                      4114
 4 Benign/Likely_benign|other                                   5
 5 Benign/Likely_benign|risk_factor                             2
 6 Benign|association                                           1
 7 Benign|other                                                 2
 8 Benign|risk_factor                                           1
 9 Conflicting_interpretations_of_pathogenicity             26697
10 Conflicting_interpretations_of_pathogenicity|association     4
# ℹ 40 more rows
…
