START AT Thu Mar 27 11:21:55 AM CET 2025
Now running panel ID: 30
[1] "Now running panel ID: 30"
[1] "Running on all chromosomes for panel ID: 30"
[1] "Bidning all rows complete for panel ID: 30"
[1] "Saving an original table with all columns"
# A tibble: 64 × 2
   clinvar_clnsig                               n
   <chr>                                    <int>
 1 0                                            1
 2 Affects                                     65
 3 Affects|risk_factor                          1
 4 Benign                                   17471
 5 Benign/Likely_benign                      5711
 6 Benign/Likely_benign|association             1
 7 Benign/Likely_benign|drug_response           2
 8 Benign/Likely_benign|drug_response|other     1
 9 Benign/Likely_benign|other                   6
10 Benign/Likely_benign|other|risk_factor       1
# ℹ 54 more rows
…
