START AT Thu Mar 27 06:08:10 PM CET 2025
Now running panel ID: 1363
[1] "Now running panel ID: 1363"
[1] "Running on all chromosomes for panel ID: 1363"
[1] "Bidning all rows complete for panel ID: 1363"
[1] "Saving an original table with all columns"
# A tibble: 57 × 2
   clinvar_clnsig                             n
   <chr>                                  <int>
 1 Affects                                   39
 2 Affects|association                        1
 3 Benign                                 13903
 4 Benign/Likely_benign                    4307
 5 Benign/Likely_benign|other                 6
 6 Benign/Likely_benign|other|risk_factor     1
 7 Benign/Likely_benign|risk_factor           1
 8 Benign|association                         1
 9 Benign|confers_sensitivity                 1
10 Benign|drug_response                       1
# ℹ 47 more rows
…
