START AT Thu Mar 27 05:04:41 PM CET 2025
Now running panel ID: 1309
[1] "Now running panel ID: 1309"
[1] "Running on all chromosomes for panel ID: 1309"
[1] "Bidning all rows complete for panel ID: 1309"
[1] "Saving an original table with all columns"
# A tibble: 55 × 2
   clinvar_clnsig                             n
   <chr>                                  <int>
 1 Affects                                   39
 2 Affects|association                        1
 3 Benign                                 13837
 4 Benign/Likely_benign                    4354
 5 Benign/Likely_benign|association           1
 6 Benign/Likely_benign|other                 5
 7 Benign/Likely_benign|other|risk_factor     1
 8 Benign|association                         1
 9 Benign|other                               2
10 Benign|risk_factor                         1
# ℹ 45 more rows
…
