START AT Thu Mar 27 11:25:35 AM CET 2025
Now running panel ID: 109
[1] "Now running panel ID: 109"
[1] "Running on all chromosomes for panel ID: 109"
[1] "Bidning all rows complete for panel ID: 109"
[1] "Saving an original table with all columns"
# A tibble: 47 × 2
   clinvar_clnsig                                   n
   <chr>                                        <int>
 1 14902                                            1
 2 30526                                            1
 3 Affects                                         40
 4 Benign                                       12011
 5 Benign/Likely_benign                          3745
 6 Benign/Likely_benign|other                       4
 7 Benign|drug_response                             1
 8 Benign|other                                     1
 9 Benign|risk_factor                               1
10 Conflicting_interpretations_of_pathogenicity 23831
# ℹ 37 more rows
…
