START AT Thu Mar 27 05:24:58 PM CET 2025
Now running panel ID: 1330
[1] "Now running panel ID: 1330"
[1] "Running on all chromosomes for panel ID: 1330"
[1] "Bidning all rows complete for panel ID: 1330"
[1] "Saving an original table with all columns"
# A tibble: 51 × 2
   clinvar_clnsig                                   n
   <chr>                                        <int>
 1 Affects                                         32
 2 Benign                                       10522
 3 Benign/Likely_benign                          3058
 4 Benign/Likely_benign|other                       4
 5 Benign/Likely_benign|risk_factor                 1
 6 Benign|association                               1
 7 Benign|confers_sensitivity                       1
 8 Benign|other                                     2
 9 Benign|risk_factor                               1
10 Conflicting_interpretations_of_pathogenicity 19851
# ℹ 41 more rows
…
