START AT Thu Mar 27 06:03:20 PM CET 2025
Now running panel ID: 1359
[1] "Now running panel ID: 1359"
[1] "Running on all chromosomes for panel ID: 1359"
[1] "Bidning all rows complete for panel ID: 1359"
[1] "Saving an original table with all columns"
# A tibble: 58 × 2
   clinvar_clnsig                       n
   <chr>                            <int>
 1 0.81871                              1
 2 Affects                             54
 3 Affects|risk_factor                  1
 4 Benign                           15795
 5 Benign/Likely_benign              4971
 6 Benign/Likely_benign|other           3
 7 Benign/Likely_benign|risk_factor     1
 8 Benign|association                   1
 9 Benign|confers_sensitivity           1
10 Benign|other                         3
# ℹ 48 more rows
…
