START AT Thu Mar 27 11:24:42 AM CET 2025
Now running panel ID: 86
[1] "Now running panel ID: 86"
[1] "Running on all chromosomes for panel ID: 86"
[1] "Bidning all rows complete for panel ID: 86"
[1] "Saving an original table with all columns"
# A tibble: 55 × 2
   clinvar_clnsig                               n
   <chr>                                    <int>
 1 0.57140                                      1
 2 Affects                                     33
 3 Affects|association                          1
 4 Benign                                   11167
 5 Benign/Likely_benign                      3502
 6 Benign/Likely_benign|drug_response           2
 7 Benign/Likely_benign|drug_response|other     1
 8 Benign/Likely_benign|other                   4
 9 Benign/Likely_benign|risk_factor             1
10 Benign|drug_response                         1
# ℹ 45 more rows
…
