START AT Thu Mar 27 05:21:53 PM CET 2025
Now running panel ID: 1325
[1] "Now running panel ID: 1325"
[1] "Running on all chromosomes for panel ID: 1325"
[1] "Bidning all rows complete for panel ID: 1325"
[1] "Saving an original table with all columns"
# A tibble: 51 × 2
   clinvar_clnsig                             n
   <chr>                                  <int>
 1 Affects                                   30
 2 Benign                                 10030
 3 Benign/Likely_benign                    3111
 4 Benign/Likely_benign|association           1
 5 Benign/Likely_benign|other                 4
 6 Benign/Likely_benign|other|risk_factor     1
 7 Benign|association                         1
 8 Benign|confers_sensitivity                 1
 9 Benign|other                               5
10 Benign|risk_factor                         1
# ℹ 41 more rows
…
