START AT Thu Mar 27 08:23:22 PM CET 2025
Now running panel ID: 1393
[1] "Now running panel ID: 1393"
[1] "Running on all chromosomes for panel ID: 1393"
[1] "Bidning all rows complete for panel ID: 1393"
[1] "Saving an original table with all columns"
# A tibble: 68 × 2
   clinvar_clnsig                             n
   <chr>                                  <int>
 1 0.65930                                    1
 2 Affects                                   87
 3 Affects|risk_factor                        1
 4 Benign                                 22759
 5 Benign/Likely_benign                    7846
 6 Benign/Likely_benign|association           1
 7 Benign/Likely_benign|other                 3
 8 Benign/Likely_benign|other|risk_factor     1
 9 Benign/Likely_benign|risk_factor           2
10 Benign|association                         1
# ℹ 58 more rows
…
