START AT Thu Mar 27 11:26:38 AM CET 2025
Now running panel ID: 649
[1] "Now running panel ID: 649"
[1] "Running on all chromosomes for panel ID: 649"
[1] "Bidning all rows complete for panel ID: 649"
[1] "Saving an original table with all columns"
# A tibble: 37 × 2
   clinvar_clnsig                                                     n
   <chr>                                                          <int>
 1 Affects                                                           20
 2 Benign                                                          7132
 3 Benign/Likely_benign                                            1996
 4 Benign/Likely_benign|other                                         4
 5 Benign|other                                                       1
 6 Benign|risk_factor                                                 1
 7 Conflicting_interpretations_of_pathogenicity                   14359
 8 Conflicting_interpretations_of_pathogenicity|association           1
 9 Conflicting_interpretations_of_pathogenicity|other                 6
10 Conflicting_interpretations_of_pathogenicity|other|risk_factor     1
# ℹ 27 more rows
…
