START AT Thu Mar 27 11:26:16 AM CET 2025
Now running panel ID: 538
[1] "Now running panel ID: 538"
[1] "Running on all chromosomes for panel ID: 538"
[1] "Bidning all rows complete for panel ID: 538"
[1] "Saving an original table with all columns"
# A tibble: 52 × 2
   clinvar_clnsig                               n
   <chr>                                    <int>
 1 Affects                                     44
 2 Affects|association                          1
 3 Benign                                   10712
 4 Benign/Likely_benign                      3323
 5 Benign/Likely_benign|drug_response           2
 6 Benign/Likely_benign|drug_response|other     1
 7 Benign/Likely_benign|other                   4
 8 Benign|drug_response                         1
 9 Benign|other                                 6
10 Benign|risk_factor                           1
# ℹ 42 more rows
…
