START AT Thu Mar 27 05:33:04 PM CET 2025
Now running panel ID: 1338
[1] "Now running panel ID: 1338"
[1] "Running on all chromosomes for panel ID: 1338"
[1] "Bidning all rows complete for panel ID: 1338"
[1] "Saving an original table with all columns"
# A tibble: 49 × 2
   clinvar_clnsig                                               n
   <chr>                                                    <int>
 1 0                                                            1
 2 1.0                                                          1
 3 Affects                                                     31
 4 Benign                                                   11078
 5 Benign/Likely_benign                                      3477
 6 Benign/Likely_benign|other                                   4
 7 Benign|association                                           1
 8 Benign|other                                                 1
 9 Conflicting_interpretations_of_pathogenicity             22038
10 Conflicting_interpretations_of_pathogenicity|association     2
# ℹ 39 more rows
…
