START AT Thu Mar 27 11:28:16 AM CET 2025
Now running panel ID: 259
[1] "Now running panel ID: 259"
[1] "Running on all chromosomes for panel ID: 259"
[1] "Bidning all rows complete for panel ID: 259"
[1] "Saving an original table with all columns"
# A tibble: 36 × 2
   clinvar_clnsig                                                     n
   <chr>                                                          <int>
 1 0                                                                  1
 2 Affects                                                           21
 3 Benign                                                          5722
 4 Benign/Likely_benign                                            1721
 5 Benign/Likely_benign|other                                         4
 6 Benign|other                                                       1
 7 Conflicting_interpretations_of_pathogenicity                   13221
 8 Conflicting_interpretations_of_pathogenicity|association           1
 9 Conflicting_interpretations_of_pathogenicity|other                 4
10 Conflicting_interpretations_of_pathogenicity|other|risk_factor     2
# ℹ 26 more rows
…
