START AT Thu Mar 27 11:24:42 AM CET 2025
Now running panel ID: 75
[1] "Now running panel ID: 75"
[1] "Running on all chromosomes for panel ID: 75"
[1] "Bidning all rows complete for panel ID: 75"
[1] "Saving an original table with all columns"
# A tibble: 53 × 2
   clinvar_clnsig                                   n
   <chr>                                        <int>
 1 Affects                                         33
 2 Benign                                       13040
 3 Benign/Likely_benign                          4205
 4 Benign/Likely_benign|other                       5
 5 Benign/Likely_benign|risk_factor                 1
 6 Benign|association                               1
 7 Benign|other                                     3
 8 Benign|protective                                1
 9 Benign|risk_factor                               1
10 Conflicting_interpretations_of_pathogenicity 24980
# ℹ 43 more rows
…
