START AT Thu Mar 27 11:27:07 AM CET 2025
Now running panel ID: 199
[1] "Now running panel ID: 199"
[1] "Running on all chromosomes for panel ID: 199"
[1] "Bidning all rows complete for panel ID: 199"
[1] "Saving an original table with all columns"
# A tibble: 38 × 2
   clinvar_clnsig                                               n
   <chr>                                                    <int>
 1 Affects                                                     11
 2 Benign                                                    5529
 3 Benign/Likely_benign                                      1724
 4 Benign/Likely_benign|other                                   4
 5 Benign/Likely_benign|risk_factor                             1
 6 Benign|other                                                 1
 7 Benign|risk_factor                                           1
 8 Conflicting_interpretations_of_pathogenicity             13079
 9 Conflicting_interpretations_of_pathogenicity|association     1
10 Conflicting_interpretations_of_pathogenicity|other           5
# ℹ 28 more rows
…
