START AT Thu Mar 27 11:28:16 AM CET 2025
Now running panel ID: 229
[1] "Now running panel ID: 229"
[1] "Running on all chromosomes for panel ID: 229"
[1] "Bidning all rows complete for panel ID: 229"
[1] "Saving an original table with all columns"
# A tibble: 39 × 2
   clinvar_clnsig                                                     n
   <chr>                                                          <int>
 1 Affects                                                           20
 2 Benign                                                          5744
 3 Benign/Likely_benign                                            1603
 4 Benign/Likely_benign|other                                         3
 5 Benign|other                                                       1
 6 Benign|risk_factor                                                 1
 7 Conflicting_interpretations_of_pathogenicity                   13431
 8 Conflicting_interpretations_of_pathogenicity|association           2
 9 Conflicting_interpretations_of_pathogenicity|other                 4
10 Conflicting_interpretations_of_pathogenicity|other|risk_factor     1
# ℹ 29 more rows
…
