START AT Thu Mar 27 11:24:11 AM CET 2025
Now running panel ID: 60
[1] "Now running panel ID: 60"
[1] "Running on all chromosomes for panel ID: 60"
[1] "Bidning all rows complete for panel ID: 60"
[1] "Saving an original table with all columns"
# A tibble: 67 × 2
   clinvar_clnsig                               n
   <chr>                                    <int>
 1 Affects                                     89
 2 Affects|association                          1
 3 Affects|risk_factor                          1
 4 Benign                                   21728
 5 Benign/Likely_benign                      6816
 6 Benign/Likely_benign|drug_response           2
 7 Benign/Likely_benign|drug_response|other     1
 8 Benign/Likely_benign|other                   6
 9 Benign/Likely_benign|risk_factor             1
10 Benign|confers_sensitivity                   1
# ℹ 57 more rows
…
