START AT Thu Mar 27 11:25:35 AM CET 2025
Now running panel ID: 106
[1] "Now running panel ID: 106"
[1] "Running on all chromosomes for panel ID: 106"
[1] "Bidning all rows complete for panel ID: 106"
[1] "Saving an original table with all columns"
# A tibble: 47 × 2
   clinvar_clnsig                                               n
   <chr>                                                    <int>
 1 Affects                                                     46
 2 Benign                                                   12531
 3 Benign/Likely_benign                                      3731
 4 Benign/Likely_benign|other                                   6
 5 Benign|other                                                 7
 6 Benign|protective                                            1
 7 Benign|risk_factor                                           1
 8 Conflicting_interpretations_of_pathogenicity             22441
 9 Conflicting_interpretations_of_pathogenicity|association     1
10 Conflicting_interpretations_of_pathogenicity|other           8
# ℹ 37 more rows
…
