START AT Thu Mar 27 11:28:16 AM CET 2025
Now running panel ID: 238
[1] "Now running panel ID: 238"
[1] "Running on all chromosomes for panel ID: 238"
[1] "Bidning all rows complete for panel ID: 238"
[1] "Saving an original table with all columns"
# A tibble: 43 × 2
   clinvar_clnsig                                               n
   <chr>                                                    <int>
 1 0                                                            1
 2 Affects                                                     10
 3 Benign                                                    6407
 4 Benign/Likely_benign                                      1969
 5 Benign/Likely_benign|other                                   3
 6 Benign|other                                                 1
 7 Conflicting_interpretations_of_pathogenicity             14083
 8 Conflicting_interpretations_of_pathogenicity|Affects         1
 9 Conflicting_interpretations_of_pathogenicity|association     2
10 Conflicting_interpretations_of_pathogenicity|other           3
# ℹ 33 more rows
…
