START AT Thu Mar 27 11:24:42 AM CET 2025
Now running panel ID: 90
[1] "Now running panel ID: 90"
[1] "Running on all chromosomes for panel ID: 90"
[1] "Bidning all rows complete for panel ID: 90"
[1] "Saving an original table with all columns"
# A tibble: 52 × 2
   clinvar_clnsig                                           n
   <chr>                                                <int>
 1 Affects                                                 42
 2 Benign                                               13434
 3 Benign/Likely_benign                                  4260
 4 Benign/Likely_benign|other                               5
 5 Benign/Likely_benign|risk_factor                         1
 6 Benign|association                                       1
 7 Benign|other                                             2
 8 Benign|risk_factor                                       1
 9 Conflicting_interpretations_of_pathogenicity         28560
10 Conflicting_interpretations_of_pathogenicity|Affects     1
# ℹ 42 more rows
…
