START AT Thu Mar 27 05:25:57 PM CET 2025
Now running panel ID: 1331
[1] "Now running panel ID: 1331"
[1] "Running on all chromosomes for panel ID: 1331"
[1] "Bidning all rows complete for panel ID: 1331"
[1] "Saving an original table with all columns"
# A tibble: 56 × 2
   clinvar_clnsig                       n
   <chr>                            <int>
 1 Affects                             50
 2 Benign                           14004
 3 Benign/Likely_benign              4578
 4 Benign/Likely_benign|other           5
 5 Benign/Likely_benign|risk_factor     1
 6 Benign|association                   1
 7 Benign|drug_response                 1
 8 Benign|other                         2
 9 Benign|protective                    1
10 Benign|risk_factor                   1
# ℹ 46 more rows
…
