START AT Thu Mar 27 11:26:12 AM CET 2025
Now running panel ID: 534
[1] "Now running panel ID: 534"
[1] "Running on all chromosomes for panel ID: 534"
[1] "Bidning all rows complete for panel ID: 534"
[1] "Saving an original table with all columns"
# A tibble: 47 × 2
   clinvar_clnsig                                               n
   <chr>                                                    <int>
 1 Affects                                                     37
 2 Affects|association                                          1
 3 Benign                                                   11965
 4 Benign/Likely_benign                                      3667
 5 Benign/Likely_benign|other                                   4
 6 Benign|association                                           1
 7 Benign|other                                                 1
 8 Benign|risk_factor                                           1
 9 Conflicting_interpretations_of_pathogenicity             22480
10 Conflicting_interpretations_of_pathogenicity|association     2
# ℹ 37 more rows
…
