START AT Thu Mar 27 11:28:16 AM CET 2025
Now running panel ID: 248
[1] "Now running panel ID: 248"
[1] "Running on all chromosomes for panel ID: 248"
[1] "Bidning all rows complete for panel ID: 248"
[1] "Saving an original table with all columns"
# A tibble: 36 × 2
   clinvar_clnsig                                               n
   <chr>                                                    <int>
 1 0.57906                                                      1
 2 Affects                                                     15
 3 Benign                                                    4758
 4 Benign/Likely_benign                                      1418
 5 Benign/Likely_benign|other                                   3
 6 Benign|other                                                 1
 7 Benign|risk_factor                                           1
 8 Conflicting_interpretations_of_pathogenicity              7539
 9 Conflicting_interpretations_of_pathogenicity|association     1
10 Conflicting_interpretations_of_pathogenicity|other           4
# ℹ 26 more rows
…
