START AT Thu Mar 27 04:27:47 PM CET 2025
Now running panel ID: 843
[1] "Now running panel ID: 843"
[1] "Running on all chromosomes for panel ID: 843"
[1] "Bidning all rows complete for panel ID: 843"
[1] "Saving an original table with all columns"
# A tibble: 52 × 2
   clinvar_clnsig                                               n
   <chr>                                                    <int>
 1 Affects                                                     32
 2 Benign                                                   11157
 3 Benign/Likely_benign                                      3690
 4 Benign/Likely_benign|association                             1
 5 Benign/Likely_benign|other                                   4
 6 Benign/Likely_benign|other|risk_factor                       1
 7 Benign/Likely_benign|risk_factor                             1
 8 Benign|other                                                 1
 9 Conflicting_interpretations_of_pathogenicity             24775
10 Conflicting_interpretations_of_pathogenicity|association     5
# ℹ 42 more rows
…
