START AT Thu Mar 27 11:26:38 AM CET 2025
Now running panel ID: 568
[1] "Now running panel ID: 568"
[1] "Running on all chromosomes for panel ID: 568"
[1] "Bidning all rows complete for panel ID: 568"
[1] "Saving an original table with all columns"
# A tibble: 44 × 2
   clinvar_clnsig                                               n
   <chr>                                                    <int>
 1 Affects                                                     28
 2 Affects|association                                          1
 3 Benign                                                   11334
 4 Benign/Likely_benign                                      3607
 5 Benign/Likely_benign|other                                   4
 6 Benign|drug_response                                         1
 7 Benign|other                                                 2
 8 Conflicting_interpretations_of_pathogenicity             21802
 9 Conflicting_interpretations_of_pathogenicity|association     2
10 Conflicting_interpretations_of_pathogenicity|other           6
# ℹ 34 more rows
…
