START AT Thu Mar 27 05:55:46 PM CET 2025
Now running panel ID: 1353
[1] "Now running panel ID: 1353"
[1] "Running on all chromosomes for panel ID: 1353"
[1] "Bidning all rows complete for panel ID: 1353"
[1] "Saving an original table with all columns"
# A tibble: 57 × 2
   clinvar_clnsig                 n
   <chr>                      <int>
 1 0.55848                        1
 2 Affects                       44
 3 Affects|risk_factor            1
 4 Benign                     12517
 5 Benign/Likely_benign        4048
 6 Benign/Likely_benign|other     5
 7 Benign|association             1
 8 Benign|drug_response           1
 9 Benign|other                   2
10 Benign|risk_factor             1
# ℹ 47 more rows
…
