START AT Thu Mar 27 11:25:35 AM CET 2025
Now running panel ID: 114
[1] "Now running panel ID: 114"
[1] "Running on all chromosomes for panel ID: 114"
[1] "Bidning all rows complete for panel ID: 114"
[1] "Saving an original table with all columns"
# A tibble: 51 × 2
   clinvar_clnsig                                           n
   <chr>                                                <int>
 1 Affects                                                 32
 2 Affects|association                                      1
 3 Benign                                               10623
 4 Benign/Likely_benign                                  3495
 5 Benign/Likely_benign|other                               4
 6 Benign|other                                             2
 7 Benign|protective                                        1
 8 Benign|risk_factor                                       1
 9 Conflicting_interpretations_of_pathogenicity         21712
10 Conflicting_interpretations_of_pathogenicity|Affects     1
# ℹ 41 more rows
…
