START AT Thu Mar 27 06:00:42 PM CET 2025
Now running panel ID: 1356
[1] "Now running panel ID: 1356"
[1] "Running on all chromosomes for panel ID: 1356"
[1] "Bidning all rows complete for panel ID: 1356"
[1] "Saving an original table with all columns"
# A tibble: 63 × 2
   clinvar_clnsig                               n
   <chr>                                    <int>
 1 Affects                                     61
 2 Benign                                   17048
 3 Benign/Likely_benign                      5461
 4 Benign/Likely_benign|drug_response           2
 5 Benign/Likely_benign|drug_response|other     1
 6 Benign/Likely_benign|other                   5
 7 Benign/Likely_benign|risk_factor             1
 8 Benign|association                           1
 9 Benign|confers_sensitivity                   1
10 Benign|drug_response                         1
# ℹ 53 more rows
…
