START AT Thu Mar 27 05:18:26 PM CET 2025
Now running panel ID: 1323
[1] "Now running panel ID: 1323"
[1] "Running on all chromosomes for panel ID: 1323"
[1] "Bidning all rows complete for panel ID: 1323"
[1] "Saving an original table with all columns"
# A tibble: 51 × 2
   clinvar_clnsig                                   n
   <chr>                                        <int>
 1 Affects                                         31
 2 Affects|association                              1
 3 Benign                                       11038
 4 Benign/Likely_benign                          3522
 5 Benign/Likely_benign|other                       4
 6 Benign/Likely_benign|risk_factor                 1
 7 Benign|drug_response                             1
 8 Benign|other                                     1
 9 Benign|risk_factor                               1
10 Conflicting_interpretations_of_pathogenicity 21419
# ℹ 41 more rows
…
