START AT Thu Mar 27 11:26:16 AM CET 2025
Now running panel ID: 540
[1] "Now running panel ID: 540"
[1] "Running on all chromosomes for panel ID: 540"
[1] "Bidning all rows complete for panel ID: 540"
[1] "Saving an original table with all columns"
# A tibble: 49 × 2
   clinvar_clnsig                             n
   <chr>                                  <int>
 1 30770                                      1
 2 Affects                                   45
 3 Benign                                 11900
 4 Benign/Likely_benign                    3510
 5 Benign/Likely_benign|association           1
 6 Benign/Likely_benign|other                 6
 7 Benign/Likely_benign|other|risk_factor     1
 8 Benign|drug_response                       1
 9 Benign|other                               3
10 Benign|risk_factor                         1
# ℹ 39 more rows
…
