START AT Thu Mar 27 11:28:16 AM CET 2025
Now running panel ID: 243
[1] "Now running panel ID: 243"
[1] "Running on all chromosomes for panel ID: 243"
[1] "Bidning all rows complete for panel ID: 243"
[1] "Saving an original table with all columns"
# A tibble: 35 × 2
   clinvar_clnsig                                               n
   <chr>                                                    <int>
 1 2                                                            1
 2 Affects                                                      6
 3 Benign                                                    5120
 4 Benign/Likely_benign                                      1427
 5 Benign/Likely_benign|other                                   3
 6 Benign|other                                                 1
 7 Benign|risk_factor                                           1
 8 Conflicting_interpretations_of_pathogenicity             11332
 9 Conflicting_interpretations_of_pathogenicity|association     1
10 Conflicting_interpretations_of_pathogenicity|other           3
# ℹ 25 more rows
…
