START AT Thu Mar 27 07:46:21 PM CET 2025
Now running panel ID: 1384
[1] "Now running panel ID: 1384"
[1] "Running on all chromosomes for panel ID: 1384"
[1] "Bidning all rows complete for panel ID: 1384"
[1] "Saving an original table with all columns"
# A tibble: 71 × 2
   clinvar_clnsig                               n
   <chr>                                    <int>
 1 Affects                                     83
 2 Affects|association                          1
 3 Affects|risk_factor                          1
 4 Benign                                   24062
 5 Benign/Likely_benign                      7920
 6 Benign/Likely_benign|association             1
 7 Benign/Likely_benign|drug_response           2
 8 Benign/Likely_benign|drug_response|other     1
 9 Benign/Likely_benign|other                   6
10 Benign/Likely_benign|other|risk_factor       1
# ℹ 61 more rows
…
