START AT Thu Mar 27 04:47:06 PM CET 2025
Now running panel ID: 1174
[1] "Now running panel ID: 1174"
[1] "Running on all chromosomes for panel ID: 1174"
[1] "Bidning all rows complete for panel ID: 1174"
[1] "Saving an original table with all columns"
# A tibble: 38 × 2
   clinvar_clnsig                                               n
   <chr>                                                    <int>
 1 Affects                                                     13
 2 Benign                                                    5784
 3 Benign/Likely_benign                                      1642
 4 Benign/Likely_benign|association                             1
 5 Benign/Likely_benign|other                                   5
 6 Benign/Likely_benign|other|risk_factor                       1
 7 Benign|other                                                 1
 8 Benign|risk_factor                                           1
 9 Conflicting_interpretations_of_pathogenicity             12740
10 Conflicting_interpretations_of_pathogenicity|association     1
# ℹ 28 more rows
…
