START AT Thu Mar 27 04:39:20 PM CET 2025
Now running panel ID: 934
[1] "Now running panel ID: 934"
[1] "Running on all chromosomes for panel ID: 934"
[1] "Bidning all rows complete for panel ID: 934"
[1] "Saving an original table with all columns"
# A tibble: 47 × 2
   clinvar_clnsig                                               n
   <chr>                                                    <int>
 1 Affects                                                     13
 2 Benign                                                    8250
 3 Benign/Likely_benign                                      2428
 4 Benign/Likely_benign|other                                   4
 5 Benign|association                                           1
 6 Benign|other                                                 2
 7 Benign|risk_factor                                           1
 8 Conflicting_interpretations_of_pathogenicity             16626
 9 Conflicting_interpretations_of_pathogenicity|association     2
10 Conflicting_interpretations_of_pathogenicity|other           5
# ℹ 37 more rows
…
