START AT Thu Mar 27 11:26:38 AM CET 2025
Now running panel ID: 657
[1] "Now running panel ID: 657"
[1] "Running on all chromosomes for panel ID: 657"
[1] "Bidning all rows complete for panel ID: 657"
[1] "Saving an original table with all columns"
# A tibble: 51 × 2
   clinvar_clnsig                                           n
   <chr>                                                <int>
 1 Affects                                                 33
 2 Affects|association                                      1
 3 Benign                                               11381
 4 Benign/Likely_benign                                  3678
 5 Benign/Likely_benign|other                               3
 6 Benign|association                                       1
 7 Benign|other                                             1
 8 Benign|protective                                        1
 9 Conflicting_interpretations_of_pathogenicity         17215
10 Conflicting_interpretations_of_pathogenicity|Affects     1
# ℹ 41 more rows
…
