START AT Thu Mar 27 05:07:45 PM CET 2025
Now running panel ID: 1311
[1] "Now running panel ID: 1311"
[1] "Running on all chromosomes for panel ID: 1311"
[1] "Bidning all rows complete for panel ID: 1311"
[1] "Saving an original table with all columns"
# A tibble: 35 × 2
   clinvar_clnsig                                                     n
   <chr>                                                          <int>
 1 Affects                                                            7
 2 Benign                                                          5237
 3 Benign/Likely_benign                                            1454
 4 Benign/Likely_benign|other                                         3
 5 Benign/Likely_benign|risk_factor                                   1
 6 Conflicting_interpretations_of_pathogenicity                   12408
 7 Conflicting_interpretations_of_pathogenicity|other                 5
 8 Conflicting_interpretations_of_pathogenicity|other|risk_factor     2
 9 Conflicting_interpretations_of_pathogenicity|risk_factor           2
10 Likely_benign                                                   7963
# ℹ 25 more rows
…
