START AT Thu Mar 27 11:24:42 AM CET 2025
Now running panel ID: 92
[1] "Now running panel ID: 92"
[1] "Running on all chromosomes for panel ID: 92"
[1] "Bidning all rows complete for panel ID: 92"
[1] "Saving an original table with all columns"
# A tibble: 45 × 2
   clinvar_clnsig                                               n
   <chr>                                                    <int>
 1 0.83352                                                      1
 2 Affects                                                     34
 3 Benign                                                   10307
 4 Benign/Likely_benign                                      3269
 5 Benign/Likely_benign|other                                   5
 6 Benign/Likely_benign|risk_factor                             1
 7 Benign|other                                                 2
 8 Benign|risk_factor                                           1
 9 Conflicting_interpretations_of_pathogenicity             21223
10 Conflicting_interpretations_of_pathogenicity|association     5
# ℹ 35 more rows
…
