START AT Thu Mar 27 04:26:29 PM CET 2025
Now running panel ID: 841
[1] "Now running panel ID: 841"
[1] "Running on all chromosomes for panel ID: 841"
[1] "Bidning all rows complete for panel ID: 841"
[1] "Saving an original table with all columns"
# A tibble: 36 × 2
   clinvar_clnsig                                               n
   <chr>                                                    <int>
 1 Affects                                                     25
 2 Benign                                                    5966
 3 Benign/Likely_benign                                      1668
 4 Benign/Likely_benign|other                                   5
 5 Benign/Likely_benign|risk_factor                             1
 6 Benign|other                                                 2
 7 Benign|risk_factor                                           1
 8 Conflicting_interpretations_of_pathogenicity              8609
 9 Conflicting_interpretations_of_pathogenicity|association     2
10 Conflicting_interpretations_of_pathogenicity|other           5
# ℹ 26 more rows
…
