START AT Thu Mar 27 11:24:11 AM CET 2025
Now running panel ID: 66
[1] "Now running panel ID: 66"
[1] "Running on all chromosomes for panel ID: 66"
[1] "Bidning all rows complete for panel ID: 66"
[1] "Saving an original table with all columns"
# A tibble: 66 × 2
   clinvar_clnsig                               n
   <chr>                                    <int>
 1 Affects                                     77
 2 Affects|association                          1
 3 Benign                                   22376
 4 Benign/Likely_benign                      7400
 5 Benign/Likely_benign|drug_response           2
 6 Benign/Likely_benign|drug_response|other     1
 7 Benign/Likely_benign|other                   6
 8 Benign/Likely_benign|risk_factor             1
 9 Benign|association                           1
10 Benign|drug_response                         1
# ℹ 56 more rows
…
