START AT Thu Mar 27 06:54:49 PM CET 2025
Now running panel ID: 1379
[1] "Now running panel ID: 1379"
[1] "Running on all chromosomes for panel ID: 1379"
[1] "Bidning all rows complete for panel ID: 1379"
[1] "Saving an original table with all columns"
# A tibble: 53 × 2
   clinvar_clnsig                             n
   <chr>                                  <int>
 1 Affects                                   49
 2 Benign                                 13432
 3 Benign/Likely_benign                    4006
 4 Benign/Likely_benign|association           1
 5 Benign/Likely_benign|other                 5
 6 Benign/Likely_benign|other|risk_factor     1
 7 Benign/Likely_benign|risk_factor           1
 8 Benign|association                         1
 9 Benign|other                               3
10 Benign|protective                          1
# ℹ 43 more rows
…
