START AT Thu Mar 27 05:49:52 PM CET 2025
Now running panel ID: 1351
[1] "Now running panel ID: 1351"
[1] "Running on all chromosomes for panel ID: 1351"
[1] "Bidning all rows complete for panel ID: 1351"
[1] "Saving an original table with all columns"
# A tibble: 61 × 2
   clinvar_clnsig                               n
   <chr>                                    <int>
 1 Affects                                     63
 2 Benign                                   18033
 3 Benign/Likely_benign                      5988
 4 Benign/Likely_benign|drug_response           2
 5 Benign/Likely_benign|drug_response|other     1
 6 Benign/Likely_benign|other                   5
 7 Benign/Likely_benign|risk_factor             2
 8 Benign|association                           1
 9 Benign|confers_sensitivity                   1
10 Benign|drug_response                         1
# ℹ 51 more rows
…
