START AT Thu Mar 27 05:14:38 PM CET 2025
Now running panel ID: 1317
[1] "Now running panel ID: 1317"
[1] "Running on all chromosomes for panel ID: 1317"
[1] "Bidning all rows complete for panel ID: 1317"
[1] "Saving an original table with all columns"
# A tibble: 42 × 2
   clinvar_clnsig                                                     n
   <chr>                                                          <int>
 1 Affects                                                           17
 2 Benign                                                          7668
 3 Benign/Likely_benign                                            2172
 4 Benign/Likely_benign|other                                         4
 5 Benign|other                                                       2
 6 Benign|risk_factor                                                 1
 7 Conflicting_interpretations_of_pathogenicity                   14911
 8 Conflicting_interpretations_of_pathogenicity|association           1
 9 Conflicting_interpretations_of_pathogenicity|other                 5
10 Conflicting_interpretations_of_pathogenicity|other|risk_factor     1
# ℹ 32 more rows
…
