START AT Thu Mar 27 06:17:18 PM CET 2025
Now running panel ID: 1369
[1] "Now running panel ID: 1369"
[1] "Running on all chromosomes for panel ID: 1369"
[1] "Bidning all rows complete for panel ID: 1369"
[1] "Saving an original table with all columns"
# A tibble: 51 × 2
   clinvar_clnsig                       n
   <chr>                            <int>
 1 0                                    1
 2 0.13420                              1
 3 0.51671                              1
 4 Affects                             26
 5 Benign                           11392
 6 Benign/Likely_benign              3578
 7 Benign/Likely_benign|other           5
 8 Benign/Likely_benign|risk_factor     1
 9 Benign|other                         2
10 Benign|protective                    1
# ℹ 41 more rows
…
