START AT Thu Mar 27 05:22:32 PM CET 2025
Now running panel ID: 1326
[1] "Now running panel ID: 1326"
[1] "Running on all chromosomes for panel ID: 1326"
[1] "Bidning all rows complete for panel ID: 1326"
[1] "Saving an original table with all columns"
# A tibble: 52 × 2
   clinvar_clnsig                                   n
   <chr>                                        <int>
 1 Affects                                         47
 2 Benign                                       13398
 3 Benign/Likely_benign                          4230
 4 Benign/Likely_benign|other                       5
 5 Benign/Likely_benign|other|risk_factor           1
 6 Benign/Likely_benign|risk_factor                 1
 7 Benign|association                               1
 8 Benign|other                                     3
 9 Benign|risk_factor                               1
10 Conflicting_interpretations_of_pathogenicity 26285
# ℹ 42 more rows
…
