START AT Thu Mar 27 11:24:42 AM CET 2025
Now running panel ID: 79
[1] "Now running panel ID: 79"
[1] "Running on all chromosomes for panel ID: 79"
[1] "Bidning all rows complete for panel ID: 79"
[1] "Saving an original table with all columns"
# A tibble: 49 × 2
   clinvar_clnsig                                               n
   <chr>                                                    <int>
 1 Affects                                                     41
 2 Affects|risk_factor                                          1
 3 Benign                                                   11787
 4 Benign/Likely_benign                                      3714
 5 Benign/Likely_benign|other                                   4
 6 Benign/Likely_benign|risk_factor                             1
 7 Benign|other                                                 1
 8 Conflicting_interpretations_of_pathogenicity             19952
 9 Conflicting_interpretations_of_pathogenicity|Affects         1
10 Conflicting_interpretations_of_pathogenicity|association     4
# ℹ 39 more rows
…
