START AT Thu Mar 27 11:27:07 AM CET 2025
Now running panel ID: 185
[1] "Now running panel ID: 185"
[1] "Running on all chromosomes for panel ID: 185"
[1] "Bidning all rows complete for panel ID: 185"
[1] "Saving an original table with all columns"
# A tibble: 33 × 2
   clinvar_clnsig                                                              n
   <chr>                                                                   <int>
 1 0.42130639912;0.42130639912;0.42130639912;0.42130639912;0.42130639912;…     1
 2 Affects                                                                    11
 3 Benign                                                                   5090
 4 Benign/Likely_benign                                                     1623
 5 Benign/Likely_benign|other                                                  3
 6 Benign|other                                                                1
 7 Conflicting_interpretations_of_pathogenicity                             7994
 8 Conflicting_interpretations_of_pathogenicity|association                    1
 9 Conflicting_interpretations_of_pathogenicity|other                          2
10 Conflicting_interpretations_of_pathogenicity|risk_factor                    2
# ℹ 23 more rows
…
