START AT Thu Mar 27 05:28:54 PM CET 2025
Now running panel ID: 1336
[1] "Now running panel ID: 1336"
[1] "Running on all chromosomes for panel ID: 1336"
[1] "Bidning all rows complete for panel ID: 1336"
[1] "Saving an original table with all columns"
# A tibble: 50 × 2
   clinvar_clnsig                                               n
   <chr>                                                    <int>
 1 Affects                                                     22
 2 Benign                                                   10836
 3 Benign/Likely_benign                                      3355
 4 Benign/Likely_benign|other                                   4
 5 Benign/Likely_benign|risk_factor                             1
 6 Benign|association                                           1
 7 Benign|other                                                 1
 8 Conflicting_interpretations_of_pathogenicity             21489
 9 Conflicting_interpretations_of_pathogenicity|Affects         1
10 Conflicting_interpretations_of_pathogenicity|association     1
# ℹ 40 more rows
…
