START AT Thu Mar 27 04:48:28 PM CET 2025
Now running panel ID: 1208
[1] "Now running panel ID: 1208"
[1] "Running on all chromosomes for panel ID: 1208"
[1] "Bidning all rows complete for panel ID: 1208"
[1] "Saving an original table with all columns"
# A tibble: 53 × 2
   clinvar_clnsig                                   n
   <chr>                                        <int>
 1 Affects                                         34
 2 Benign                                       11298
 3 Benign/Likely_benign                          3574
 4 Benign/Likely_benign|association                 1
 5 Benign/Likely_benign|other                       3
 6 Benign/Likely_benign|other|risk_factor           1
 7 Benign|association                               1
 8 Benign|confers_sensitivity                       1
 9 Benign|other                                     1
10 Conflicting_interpretations_of_pathogenicity 23829
# ℹ 43 more rows
…
