START AT Thu Mar 27 06:20:23 PM CET 2025
Now running panel ID: 1371
[1] "Now running panel ID: 1371"
[1] "Running on all chromosomes for panel ID: 1371"
[1] "Bidning all rows complete for panel ID: 1371"
[1] "Saving an original table with all columns"
# A tibble: 53 × 2
   clinvar_clnsig                                   n
   <chr>                                        <int>
 1 Affects                                         41
 2 Benign                                       13065
 3 Benign/Likely_benign                          4111
 4 Benign/Likely_benign|other                       6
 5 Benign/Likely_benign|risk_factor                 1
 6 Benign|association                               1
 7 Benign|confers_sensitivity                       1
 8 Benign|other                                     3
 9 Benign|risk_factor                               1
10 Conflicting_interpretations_of_pathogenicity 25164
# ℹ 43 more rows
…
