START AT Thu Mar 27 04:39:17 PM CET 2025
Now running panel ID: 933
[1] "Now running panel ID: 933"
[1] "Running on all chromosomes for panel ID: 933"
[1] "Bidning all rows complete for panel ID: 933"
[1] "Saving an original table with all columns"
# A tibble: 31 × 2
   clinvar_clnsig                                               n
   <chr>                                                    <int>
 1 Affects                                                     18
 2 Benign                                                    5345
 3 Benign/Likely_benign                                      1431
 4 Benign/Likely_benign|other                                   3
 5 Benign/Likely_benign|risk_factor                             1
 6 Benign|other                                                 1
 7 Benign|risk_factor                                           1
 8 Conflicting_interpretations_of_pathogenicity              7722
 9 Conflicting_interpretations_of_pathogenicity|association     1
10 Conflicting_interpretations_of_pathogenicity|other           5
# ℹ 21 more rows
…
