START AT Thu Mar 27 11:27:07 AM CET 2025
Now running panel ID: 193
[1] "Now running panel ID: 193"
[1] "Running on all chromosomes for panel ID: 193"
[1] "Bidning all rows complete for panel ID: 193"
[1] "Saving an original table with all columns"
# A tibble: 36 × 2
   clinvar_clnsig                                               n
   <chr>                                                    <int>
 1 Affects                                                      9
 2 Benign                                                    6652
 3 Benign/Likely_benign                                      2006
 4 Benign/Likely_benign|other                                   4
 5 Benign|other                                                 1
 6 Conflicting_interpretations_of_pathogenicity             14797
 7 Conflicting_interpretations_of_pathogenicity|association     1
 8 Conflicting_interpretations_of_pathogenicity|other           2
 9 Conflicting_interpretations_of_pathogenicity|risk_factor     1
10 Likely_benign                                            10086
# ℹ 26 more rows
…
