START AT Thu Mar 27 11:24:42 AM CET 2025
Now running panel ID: 81
[1] "Now running panel ID: 81"
[1] "Running on all chromosomes for panel ID: 81"
[1] "Bidning all rows complete for panel ID: 81"
[1] "Saving an original table with all columns"
# A tibble: 51 × 2
   clinvar_clnsig                                               n
   <chr>                                                    <int>
 1 Affects                                                     54
 2 Affects|risk_factor                                          1
 3 Benign                                                   13259
 4 Benign/Likely_benign                                      3997
 5 Benign/Likely_benign|other                                   4
 6 Benign/Likely_benign|risk_factor                             1
 7 Benign|other                                                 1
 8 Conflicting_interpretations_of_pathogenicity             26028
 9 Conflicting_interpretations_of_pathogenicity|Affects         1
10 Conflicting_interpretations_of_pathogenicity|association     2
# ℹ 41 more rows
…
