START AT Thu Mar 27 07:25:39 PM CET 2025
Now running panel ID: 1382
[1] "Now running panel ID: 1382"
[1] "Running on all chromosomes for panel ID: 1382"
[1] "Bidning all rows complete for panel ID: 1382"
[1] "Saving an original table with all columns"
# A tibble: 70 × 2
   clinvar_clnsig                               n
   <chr>                                    <int>
 1 .;                                           1
 2 Affects                                     82
 3 Affects|association                          1
 4 Affects|risk_factor                          1
 5 Benign                                   20461
 6 Benign/Likely_benign                      6332
 7 Benign/Likely_benign|drug_response           2
 8 Benign/Likely_benign|drug_response|other     1
 9 Benign/Likely_benign|other                   6
10 Benign/Likely_benign|other|risk_factor       1
# ℹ 60 more rows
…
