START AT Thu Mar 27 04:48:53 PM CET 2025
Now running panel ID: 1209
[1] "Now running panel ID: 1209"
[1] "Running on all chromosomes for panel ID: 1209"
[1] "Bidning all rows complete for panel ID: 1209"
[1] "Saving an original table with all columns"
# A tibble: 35 × 2
   clinvar_clnsig                                                     n
   <chr>                                                          <int>
 1 0.22870                                                            1
 2 Affects                                                            6
 3 Benign                                                          5290
 4 Benign/Likely_benign                                            1419
 5 Benign/Likely_benign|other                                         3
 6 Benign/Likely_benign|risk_factor                                   1
 7 Conflicting_interpretations_of_pathogenicity                   12416
 8 Conflicting_interpretations_of_pathogenicity|other                 5
 9 Conflicting_interpretations_of_pathogenicity|other|risk_factor     2
10 Conflicting_interpretations_of_pathogenicity|risk_factor           2
# ℹ 25 more rows
…
