START AT Thu Mar 27 11:25:35 AM CET 2025
Now running panel ID: 105
[1] "Now running panel ID: 105"
[1] "Running on all chromosomes for panel ID: 105"
[1] "Bidning all rows complete for panel ID: 105"
[1] "Saving an original table with all columns"
# A tibble: 40 × 2
   clinvar_clnsig                                                     n
   <chr>                                                          <int>
 1 Affects                                                           24
 2 Benign                                                          8498
 3 Benign/Likely_benign                                            2673
 4 Benign/Likely_benign|other                                         4
 5 Benign|other                                                       1
 6 Benign|risk_factor                                                 1
 7 Conflicting_interpretations_of_pathogenicity                   17715
 8 Conflicting_interpretations_of_pathogenicity|association           1
 9 Conflicting_interpretations_of_pathogenicity|other                 6
10 Conflicting_interpretations_of_pathogenicity|other|risk_factor     1
# ℹ 30 more rows
…
