START AT Thu Mar 27 04:30:39 PM CET 2025
Now running panel ID: 902
[1] "Now running panel ID: 902"
[1] "Running on all chromosomes for panel ID: 902"
[1] "Bidning all rows complete for panel ID: 902"
[1] "Saving an original table with all columns"
# A tibble: 32 × 2
   clinvar_clnsig                                                     n
   <chr>                                                          <int>
 1 Affects                                                           16
 2 Benign                                                          5368
 3 Benign/Likely_benign                                            1764
 4 Benign/Likely_benign|other                                         3
 5 Benign/Likely_benign|risk_factor                                   1
 6 Benign|other                                                       1
 7 Conflicting_interpretations_of_pathogenicity                    9205
 8 Conflicting_interpretations_of_pathogenicity|association           1
 9 Conflicting_interpretations_of_pathogenicity|other                 4
10 Conflicting_interpretations_of_pathogenicity|other|risk_factor     1
# ℹ 22 more rows
…
