START AT Thu Mar 27 04:57:26 PM CET 2025
Now running panel ID: 1220
[1] "Now running panel ID: 1220"
[1] "Running on all chromosomes for panel ID: 1220"
[1] "Bidning all rows complete for panel ID: 1220"
[1] "Saving an original table with all columns"
# A tibble: 42 × 2
   clinvar_clnsig                                                     n
   <chr>                                                          <int>
 1 Affects                                                           17
 2 Benign                                                          7283
 3 Benign/Likely_benign                                            2282
 4 Benign/Likely_benign|other                                         3
 5 Benign|association                                                 1
 6 Benign|other                                                       1
 7 Conflicting_interpretations_of_pathogenicity                   15287
 8 Conflicting_interpretations_of_pathogenicity|association           1
 9 Conflicting_interpretations_of_pathogenicity|other                 6
10 Conflicting_interpretations_of_pathogenicity|other|risk_factor     1
# ℹ 32 more rows
…
