START AT Thu Mar 27 11:28:16 AM CET 2025
Now running panel ID: 247
[1] "Now running panel ID: 247"
[1] "Running on all chromosomes for panel ID: 247"
[1] "Bidning all rows complete for panel ID: 247"
[1] "Saving an original table with all columns"
# A tibble: 33 × 2
   clinvar_clnsig                                               n
   <chr>                                                    <int>
 1 .;.;.                                                        1
 2 0.000000e+00                                                 1
 3 Affects                                                      7
 4 Benign                                                    5359
 5 Benign/Likely_benign                                      1680
 6 Benign/Likely_benign|other                                   4
 7 Benign|other                                                 1
 8 Conflicting_interpretations_of_pathogenicity              7517
 9 Conflicting_interpretations_of_pathogenicity|association     1
10 Conflicting_interpretations_of_pathogenicity|other           2
# ℹ 23 more rows
…
