START AT Thu Mar 27 05:35:11 PM CET 2025
Now running panel ID: 1340
[1] "Now running panel ID: 1340"
[1] "Running on all chromosomes for panel ID: 1340"
[1] "Bidning all rows complete for panel ID: 1340"
[1] "Saving an original table with all columns"
# A tibble: 46 × 2
   clinvar_clnsig                                   n
   <chr>                                        <int>
 1 6.553080e-05                                     1
 2 Affects                                         21
 3 Benign                                        8836
 4 Benign/Likely_benign                          2812
 5 Benign/Likely_benign|other                       4
 6 Benign/Likely_benign|risk_factor                 1
 7 Benign|association                               1
 8 Benign|other                                     2
 9 Benign|risk_factor                               1
10 Conflicting_interpretations_of_pathogenicity 17737
# ℹ 36 more rows
…
