START AT Thu Mar 27 05:49:20 PM CET 2025
Now running panel ID: 1349
[1] "Now running panel ID: 1349"
[1] "Running on all chromosomes for panel ID: 1349"
[1] "Bidning all rows complete for panel ID: 1349"
[1] "Saving an original table with all columns"
# A tibble: 46 × 2
   clinvar_clnsig                                               n
   <chr>                                                    <int>
 1 Affects                                                     31
 2 Benign                                                   10213
 3 Benign/Likely_benign                                      3174
 4 Benign/Likely_benign|other                                   5
 5 Benign/Likely_benign|risk_factor                             1
 6 Benign|other                                                 2
 7 Benign|risk_factor                                           1
 8 Conflicting_interpretations_of_pathogenicity             20432
 9 Conflicting_interpretations_of_pathogenicity|association     2
10 Conflicting_interpretations_of_pathogenicity|other           8
# ℹ 36 more rows
…
