START AT Thu Mar 27 04:27:49 PM CET 2025
Now running panel ID: 846
[1] "Now running panel ID: 846"
[1] "Running on all chromosomes for panel ID: 846"
[1] "Bidning all rows complete for panel ID: 846"
[1] "Saving an original table with all columns"
# A tibble: 56 × 2
   clinvar_clnsig                             n
   <chr>                                  <int>
 1 0.19461                                    1
 2 Affects                                   36
 3 Benign                                 13278
 4 Benign/Likely_benign                    4297
 5 Benign/Likely_benign|association           1
 6 Benign/Likely_benign|other                 5
 7 Benign/Likely_benign|other|risk_factor     1
 8 Benign/Likely_benign|risk_factor           1
 9 Benign|association                         1
10 Benign|drug_response                       1
# ℹ 46 more rows
…
