START AT Thu Mar 27 11:26:38 AM CET 2025
Now running panel ID: 700
[1] "Now running panel ID: 700"
[1] "Running on all chromosomes for panel ID: 700"
[1] "Bidning all rows complete for panel ID: 700"
[1] "Saving an original table with all columns"
# A tibble: 46 × 2
   clinvar_clnsig                               n
   <chr>                                    <int>
 1 Affects                                     24
 2 Affects|association                          1
 3 Benign                                    9679
 4 Benign/Likely_benign                      2964
 5 Benign/Likely_benign|drug_response           2
 6 Benign/Likely_benign|drug_response|other     1
 7 Benign/Likely_benign|other                   5
 8 Benign|drug_response                         1
 9 Benign|other                                 6
10 Benign|risk_factor                           1
# ℹ 36 more rows
…
