START AT Thu Mar 27 11:25:35 AM CET 2025
Now running panel ID: 112
[1] "Now running panel ID: 112"
[1] "Running on all chromosomes for panel ID: 112"
[1] "Bidning all rows complete for panel ID: 112"
[1] "Saving an original table with all columns"
# A tibble: 52 × 2
   clinvar_clnsig                                           n
   <chr>                                                <int>
 1 89556                                                    1
 2 Affects                                                 34
 3 Affects|association                                      1
 4 Benign                                               12352
 5 Benign/Likely_benign                                  3935
 6 Benign/Likely_benign|other                               4
 7 Benign/Likely_benign|risk_factor                         1
 8 Benign|other                                             1
 9 Conflicting_interpretations_of_pathogenicity         26237
10 Conflicting_interpretations_of_pathogenicity|Affects     1
# ℹ 42 more rows
…
