START AT Thu Mar 27 11:26:38 AM CET 2025
Now running panel ID: 652
[1] "Now running panel ID: 652"
[1] "Running on all chromosomes for panel ID: 652"
[1] "Bidning all rows complete for panel ID: 652"
[1] "Saving an original table with all columns"
# A tibble: 45 × 2
   clinvar_clnsig                                               n
   <chr>                                                    <int>
 1 Affects                                                     33
 2 Affects|association                                          1
 3 Benign                                                   10905
 4 Benign/Likely_benign                                      3403
 5 Benign/Likely_benign|other                                   5
 6 Benign|other                                                 2
 7 Benign|protective                                            1
 8 Benign|risk_factor                                           1
 9 Conflicting_interpretations_of_pathogenicity             21574
10 Conflicting_interpretations_of_pathogenicity|association     2
# ℹ 35 more rows
…
