START AT Thu Mar 27 04:05:10 PM CET 2025
Now running panel ID: 725
[1] "Now running panel ID: 725"
[1] "Running on all chromosomes for panel ID: 725"
[1] "Bidning all rows complete for panel ID: 725"
[1] "Saving an original table with all columns"
# A tibble: 33 × 2
   clinvar_clnsig                                               n
   <chr>                                                    <int>
 1 Affects                                                      6
 2 Benign                                                    5283
 3 Benign/Likely_benign                                      1727
 4 Benign/Likely_benign|other                                   3
 5 Benign|other                                                 1
 6 Benign|risk_factor                                           1
 7 Conflicting_interpretations_of_pathogenicity              8725
 8 Conflicting_interpretations_of_pathogenicity|association     1
 9 Conflicting_interpretations_of_pathogenicity|other           3
10 Conflicting_interpretations_of_pathogenicity|risk_factor     3
# ℹ 23 more rows
…
