START AT Thu Mar 27 11:27:07 AM CET 2025
Now running panel ID: 197
[1] "Now running panel ID: 197"
[1] "Running on all chromosomes for panel ID: 197"
[1] "Bidning all rows complete for panel ID: 197"
[1] "Saving an original table with all columns"
# A tibble: 38 × 2
   clinvar_clnsig                                   n
   <chr>                                        <int>
 1 .;.;                                             1
 2 0.31710                                          1
 3 0.994000                                         1
 4 Affects                                         22
 5 Benign                                        6343
 6 Benign/Likely_benign                          1927
 7 Benign/Likely_benign|other                       4
 8 Benign|other                                     2
 9 Benign|risk_factor                               1
10 Conflicting_interpretations_of_pathogenicity  9348
# ℹ 28 more rows
…
