START AT Thu Mar 27 11:27:07 AM CET 2025
Now running panel ID: 189
[1] "Now running panel ID: 189"
[1] "Running on all chromosomes for panel ID: 189"
[1] "Bidning all rows complete for panel ID: 189"
[1] "Saving an original table with all columns"
# A tibble: 33 × 2
   clinvar_clnsig                                               n
   <chr>                                                    <int>
 1 Affects                                                      6
 2 Benign                                                    5871
 3 Benign/Likely_benign                                      1818
 4 Benign/Likely_benign|risk_factor                             1
 5 Benign|other                                                 1
 6 Benign|risk_factor                                           1
 7 Conflicting_interpretations_of_pathogenicity              9614
 8 Conflicting_interpretations_of_pathogenicity|association     1
 9 Conflicting_interpretations_of_pathogenicity|other           3
10 Conflicting_interpretations_of_pathogenicity|risk_factor     2
# ℹ 23 more rows
…
