START AT Thu Mar 27 11:24:42 AM CET 2025
Now running panel ID: 91
[1] "Now running panel ID: 91"
[1] "Running on all chromosomes for panel ID: 91"
[1] "Bidning all rows complete for panel ID: 91"
[1] "Saving an original table with all columns"
# A tibble: 55 × 2
   clinvar_clnsig                               n
   <chr>                                    <int>
 1 Affects                                     44
 2 Benign                                   13129
 3 Benign/Likely_benign                      4164
 4 Benign/Likely_benign|drug_response           2
 5 Benign/Likely_benign|drug_response|other     1
 6 Benign/Likely_benign|other                   3
 7 Benign/Likely_benign|risk_factor             2
 8 Benign|drug_response                         1
 9 Benign|other                                 2
10 Benign|risk_factor                           1
# ℹ 45 more rows
…
