START AT Thu Mar 27 05:35:41 PM CET 2025
Now running panel ID: 1343
[1] "Now running panel ID: 1343"
[1] "Running on all chromosomes for panel ID: 1343"
[1] "Bidning all rows complete for panel ID: 1343"
[1] "Saving an original table with all columns"
# A tibble: 52 × 2
   clinvar_clnsig                                               n
   <chr>                                                    <int>
 1 Affects                                                     43
 2 Benign                                                   12279
 3 Benign/Likely_benign                                      3927
 4 Benign/Likely_benign|other                                   5
 5 Benign/Likely_benign|risk_factor                             1
 6 Benign|association                                           1
 7 Benign|other                                                 2
 8 Benign|risk_factor                                           1
 9 Conflicting_interpretations_of_pathogenicity             23492
10 Conflicting_interpretations_of_pathogenicity|association     2
# ℹ 42 more rows
…
