START AT Thu Mar 27 04:26:45 PM CET 2025
Now running panel ID: 842
[1] "Now running panel ID: 842"
[1] "Running on all chromosomes for panel ID: 842"
[1] "Bidning all rows complete for panel ID: 842"
[1] "Saving an original table with all columns"
# A tibble: 52 × 2
   clinvar_clnsig                             n
   <chr>                                  <int>
 1 Affects                                   26
 2 Affects|association                        1
 3 Benign                                 11540
 4 Benign/Likely_benign                    3709
 5 Benign/Likely_benign|association           1
 6 Benign/Likely_benign|other                 4
 7 Benign/Likely_benign|other|risk_factor     1
 8 Benign/Likely_benign|risk_factor           1
 9 Benign|drug_response                       1
10 Benign|other                               1
# ℹ 42 more rows
…
