START AT Thu Mar 27 11:27:07 AM CET 2025
Now running panel ID: 178
[1] "Now running panel ID: 178"
[1] "Running on all chromosomes for panel ID: 178"
[1] "Bidning all rows complete for panel ID: 178"
[1] "Saving an original table with all columns"
# A tibble: 45 × 2
   clinvar_clnsig                                               n
   <chr>                                                    <int>
 1 0                                                            1
 2 0.761660635471                                               1
 3 Affects                                                      9
 4 Benign                                                    6305
 5 Benign/Likely_benign                                      1908
 6 Benign/Likely_benign|other                                   3
 7 Benign|other                                                 2
 8 Conflicting_interpretations_of_pathogenicity             14782
 9 Conflicting_interpretations_of_pathogenicity|Affects         1
10 Conflicting_interpretations_of_pathogenicity|association     1
# ℹ 35 more rows
…
