START AT Thu Mar 27 11:24:42 AM CET 2025
Now running panel ID: 87
[1] "Now running panel ID: 87"
[1] "Running on all chromosomes for panel ID: 87"
[1] "Bidning all rows complete for panel ID: 87"
[1] "Saving an original table with all columns"
# A tibble: 42 × 2
   clinvar_clnsig                                               n
   <chr>                                                    <int>
 1 Affects                                                     25
 2 Benign                                                    9619
 3 Benign/Likely_benign                                      3001
 4 Benign/Likely_benign|other                                   5
 5 Benign/Likely_benign|risk_factor                             1
 6 Benign|other                                                 6
 7 Benign|risk_factor                                           1
 8 Conflicting_interpretations_of_pathogenicity             19936
 9 Conflicting_interpretations_of_pathogenicity|association     4
10 Conflicting_interpretations_of_pathogenicity|other           9
# ℹ 32 more rows
…
