START AT Thu Mar 27 04:50:49 PM CET 2025
Now running panel ID: 1211
[1] "Now running panel ID: 1211"
[1] "Running on all chromosomes for panel ID: 1211"
[1] "Bidning all rows complete for panel ID: 1211"
[1] "Saving an original table with all columns"
# A tibble: 34 × 2
   clinvar_clnsig                                               n
   <chr>                                                    <int>
 1 Affects                                                     26
 2 Benign                                                    5881
 3 Benign/Likely_benign                                      1947
 4 Benign/Likely_benign|other                                   1
 5 Benign/Likely_benign|risk_factor                             1
 6 Benign|other                                                 1
 7 Benign|risk_factor                                           1
 8 Conflicting_interpretations_of_pathogenicity              8957
 9 Conflicting_interpretations_of_pathogenicity|association     1
10 Conflicting_interpretations_of_pathogenicity|other           6
# ℹ 24 more rows
…
