START AT Thu Mar 27 11:28:16 AM CET 2025
Now running panel ID: 225
[1] "Now running panel ID: 225"
[1] "Running on all chromosomes for panel ID: 225"
[1] "Bidning all rows complete for panel ID: 225"
[1] "Saving an original table with all columns"
# A tibble: 36 × 2
   clinvar_clnsig                                                     n
   <chr>                                                          <int>
 1 Affects                                                           11
 2 Benign                                                          5260
 3 Benign/Likely_benign                                            1353
 4 Benign/Likely_benign|other                                         4
 5 Benign|other                                                       2
 6 Benign|risk_factor                                                 1
 7 Conflicting_interpretations_of_pathogenicity                    7027
 8 Conflicting_interpretations_of_pathogenicity|association           1
 9 Conflicting_interpretations_of_pathogenicity|other                 3
10 Conflicting_interpretations_of_pathogenicity|other|risk_factor     2
# ℹ 26 more rows
…
