START AT Thu Mar 27 04:09:43 PM CET 2025
Now running panel ID: 726
[1] "Now running panel ID: 726"
[1] "Running on all chromosomes for panel ID: 726"
[1] "Bidning all rows complete for panel ID: 726"
[1] "Saving an original table with all columns"
# A tibble: 33 × 2
   clinvar_clnsig                                                     n
   <chr>                                                          <int>
 1 Affects                                                           14
 2 Benign                                                          6254
 3 Benign/Likely_benign                                            1861
 4 Benign/Likely_benign|other                                         4
 5 Benign/Likely_benign|risk_factor                                   1
 6 Benign|other                                                       1
 7 Conflicting_interpretations_of_pathogenicity                   14120
 8 Conflicting_interpretations_of_pathogenicity|association           1
 9 Conflicting_interpretations_of_pathogenicity|other                 5
10 Conflicting_interpretations_of_pathogenicity|other|risk_factor     1
# ℹ 23 more rows
…
