START AT Thu Mar 27 11:25:35 AM CET 2025
Now running panel ID: 99
[1] "Now running panel ID: 99"
[1] "Running on all chromosomes for panel ID: 99"
[1] "Bidning all rows complete for panel ID: 99"
[1] "Saving an original table with all columns"
# A tibble: 48 × 2
   clinvar_clnsig                                           n
   <chr>                                                <int>
 1 Affects                                                 29
 2 Affects|association                                      1
 3 Benign                                                9698
 4 Benign/Likely_benign                                  2974
 5 Benign/Likely_benign|other                               4
 6 Benign|drug_response                                     1
 7 Benign|other                                             1
 8 Benign|risk_factor                                       1
 9 Conflicting_interpretations_of_pathogenicity         13741
10 Conflicting_interpretations_of_pathogenicity|Affects     1
# ℹ 38 more rows
…
