START AT Thu Mar 27 05:01:45 PM CET 2025
Now running panel ID: 1225
[1] "Now running panel ID: 1225"
[1] "Running on all chromosomes for panel ID: 1225"
[1] "Bidning all rows complete for panel ID: 1225"
[1] "Saving an original table with all columns"
# A tibble: 43 × 2
   clinvar_clnsig                                               n
   <chr>                                                    <int>
 1 Affects                                                     12
 2 Benign                                                    6948
 3 Benign/Likely_benign                                      2039
 4 Benign/Likely_benign|other                                   3
 5 Benign/Likely_benign|other|risk_factor                       1
 6 Benign|association                                           1
 7 Benign|other                                                 1
 8 Conflicting_interpretations_of_pathogenicity             14837
 9 Conflicting_interpretations_of_pathogenicity|association     2
10 Conflicting_interpretations_of_pathogenicity|other           5
# ℹ 33 more rows
…
