START AT Thu Mar 27 04:49:55 PM CET 2025
Now running panel ID: 1210
[1] "Now running panel ID: 1210"
[1] "Running on all chromosomes for panel ID: 1210"
[1] "Bidning all rows complete for panel ID: 1210"
[1] "Saving an original table with all columns"
# A tibble: 63 × 2
   clinvar_clnsig                             n
   <chr>                                  <int>
 1 10624                                      1
 2 Affects                                   46
 3 Benign                                 15796
 4 Benign/Likely_benign                    5252
 5 Benign/Likely_benign|association           1
 6 Benign/Likely_benign|other                 5
 7 Benign/Likely_benign|other|risk_factor     1
 8 Benign/Likely_benign|risk_factor           1
 9 Benign|association                         1
10 Benign|confers_sensitivity                 1
# ℹ 53 more rows
…
