START AT Thu Mar 27 05:17:56 PM CET 2025
Now running panel ID: 1321
[1] "Now running panel ID: 1321"
[1] "Running on all chromosomes for panel ID: 1321"
[1] "Bidning all rows complete for panel ID: 1321"
[1] "Saving an original table with all columns"
# A tibble: 41 × 2
   clinvar_clnsig                                               n
   <chr>                                                    <int>
 1 Affects                                                     18
 2 Benign                                                    6658
 3 Benign/Likely_benign                                      2163
 4 Benign/Likely_benign|other                                   4
 5 Benign/Likely_benign|risk_factor                             1
 6 Benign|other                                                 2
 7 Benign|risk_factor                                           1
 8 Conflicting_interpretations_of_pathogenicity             10063
 9 Conflicting_interpretations_of_pathogenicity|association     1
10 Conflicting_interpretations_of_pathogenicity|other           4
# ℹ 31 more rows
…
