START AT Thu Mar 27 11:27:07 AM CET 2025
Now running panel ID: 176
[1] "Now running panel ID: 176"
[1] "Running on all chromosomes for panel ID: 176"
[1] "Bidning all rows complete for panel ID: 176"
[1] "Saving an original table with all columns"
# A tibble: 32 × 2
   clinvar_clnsig                                                     n
   <chr>                                                          <int>
 1 Affects                                                           13
 2 Benign                                                          5844
 3 Benign/Likely_benign                                            1672
 4 Benign/Likely_benign|risk_factor                                   1
 5 Benign|other                                                       1
 6 Conflicting_interpretations_of_pathogenicity                    9484
 7 Conflicting_interpretations_of_pathogenicity|association           2
 8 Conflicting_interpretations_of_pathogenicity|other                 5
 9 Conflicting_interpretations_of_pathogenicity|other|risk_factor     2
10 Conflicting_interpretations_of_pathogenicity|risk_factor           3
# ℹ 22 more rows
…
