START AT Thu Mar 27 05:16:51 PM CET 2025
Now running panel ID: 1320
[1] "Now running panel ID: 1320"
[1] "Running on all chromosomes for panel ID: 1320"
[1] "Bidning all rows complete for panel ID: 1320"
[1] "Saving an original table with all columns"
# A tibble: 54 × 2
   clinvar_clnsig                             n
   <chr>                                  <int>
 1 Affects                                   47
 2 Benign                                 14210
 3 Benign/Likely_benign                    4666
 4 Benign/Likely_benign|association           1
 5 Benign/Likely_benign|other                 4
 6 Benign/Likely_benign|other|risk_factor     1
 7 Benign|association                         1
 8 Benign|confers_sensitivity                 1
 9 Benign|other                               5
10 Benign|risk_factor                         2
# ℹ 44 more rows
…
