START AT Thu Mar 27 06:49:46 PM CET 2025
Now running panel ID: 1377
[1] "Now running panel ID: 1377"
[1] "Running on all chromosomes for panel ID: 1377"
[1] "Bidning all rows complete for panel ID: 1377"
[1] "Saving an original table with all columns"
# A tibble: 70 × 2
   clinvar_clnsig                               n
   <chr>                                    <int>
 1 Affects                                     64
 2 Benign                                   20965
 3 Benign/Likely_benign                      6959
 4 Benign/Likely_benign|association             1
 5 Benign/Likely_benign|drug_response           2
 6 Benign/Likely_benign|drug_response|other     1
 7 Benign/Likely_benign|other                   6
 8 Benign/Likely_benign|other|risk_factor       1
 9 Benign/Likely_benign|risk_factor             2
10 Benign|association                           1
# ℹ 60 more rows
…
