START AT Thu Mar 27 04:10:11 PM CET 2025
Now running panel ID: 728
[1] "Now running panel ID: 728"
[1] "Running on all chromosomes for panel ID: 728"
[1] "Bidning all rows complete for panel ID: 728"
[1] "Saving an original table with all columns"
# A tibble: 50 × 2
   clinvar_clnsig                                   n
   <chr>                                        <int>
 1 Affects                                         40
 2 Benign                                       12213
 3 Benign/Likely_benign                          3899
 4 Benign/Likely_benign|association                 1
 5 Benign/Likely_benign|other                       5
 6 Benign/Likely_benign|other|risk_factor           1
 7 Benign|drug_response                             1
 8 Benign|other                                     7
 9 Benign|risk_factor                               1
10 Conflicting_interpretations_of_pathogenicity 20977
# ℹ 40 more rows
…
