START AT Thu Mar 27 11:28:16 AM CET 2025
Now running panel ID: 235
[1] "Now running panel ID: 235"
[1] "Running on all chromosomes for panel ID: 235"
[1] "Bidning all rows complete for panel ID: 235"
[1] "Saving an original table with all columns"
# A tibble: 36 × 2
   clinvar_clnsig                                               n
   <chr>                                                    <int>
 1 0                                                            1
 2 0.79791                                                      1
 3 Affects                                                     11
 4 Benign                                                    5199
 5 Benign/Likely_benign                                      1333
 6 Benign/Likely_benign|other                                   3
 7 Benign|drug_response                                         1
 8 Benign|other                                                 1
 9 Conflicting_interpretations_of_pathogenicity              7583
10 Conflicting_interpretations_of_pathogenicity|association     1
# ℹ 26 more rows
…
