START AT Thu Mar 27 05:27:57 PM CET 2025
Now running panel ID: 1335
[1] "Now running panel ID: 1335"
[1] "Running on all chromosomes for panel ID: 1335"
[1] "Bidning all rows complete for panel ID: 1335"
[1] "Saving an original table with all columns"
# A tibble: 54 × 2
   clinvar_clnsig                                           n
   <chr>                                                <int>
 1 Affects                                                 39
 2 Benign                                               12926
 3 Benign/Likely_benign                                  4057
 4 Benign/Likely_benign|other                               5
 5 Benign/Likely_benign|risk_factor                         1
 6 Benign|drug_response                                     1
 7 Benign|other                                             3
 8 Benign|risk_factor                                       1
 9 Conflicting_interpretations_of_pathogenicity         24912
10 Conflicting_interpretations_of_pathogenicity|Affects     1
# ℹ 44 more rows
…
