START AT Thu Mar 27 04:35:43 PM CET 2025
Now running panel ID: 930
[1] "Now running panel ID: 930"
[1] "Running on all chromosomes for panel ID: 930"
[1] "Bidning all rows complete for panel ID: 930"
[1] "Saving an original table with all columns"
# A tibble: 38 × 2
   clinvar_clnsig                                                     n
   <chr>                                                          <int>
 1 Affects                                                           27
 2 Benign                                                          6266
 3 Benign/Likely_benign                                            1974
 4 Benign/Likely_benign|other                                         4
 5 Benign|other                                                       1
 6 Benign|risk_factor                                                 1
 7 Conflicting_interpretations_of_pathogenicity                    9805
 8 Conflicting_interpretations_of_pathogenicity|association           1
 9 Conflicting_interpretations_of_pathogenicity|other                 5
10 Conflicting_interpretations_of_pathogenicity|other|risk_factor     2
# ℹ 28 more rows
…
