START AT Thu Mar 27 11:27:07 AM CET 2025
Now running panel ID: 210
[1] "Now running panel ID: 210"
[1] "Running on all chromosomes for panel ID: 210"
[1] "Bidning all rows complete for panel ID: 210"
[1] "Saving an original table with all columns"
# A tibble: 39 × 2
   clinvar_clnsig                                                           n
   <chr>                                                                <int>
 1 Affects                                                                 12
 2 Benign                                                                5813
 3 Benign/Likely_benign                                                  1498
 4 Benign/Likely_benign|other                                               4
 5 Benign|other                                                             2
 6 Benign|risk_factor                                                       1
 7 Conflicting_interpretations_of_pathogenicity                         13126
 8 Conflicting_interpretations_of_pathogenicity|association                 2
 9 Conflicting_interpretations_of_pathogenicity|association|risk_factor     1
10 Conflicting_interpretations_of_pathogenicity|other                       3
# ℹ 29 more rows
…
