START AT Thu Mar 27 04:53:03 PM CET 2025
Now running panel ID: 1213
[1] "Now running panel ID: 1213"
[1] "Running on all chromosomes for panel ID: 1213"
[1] "Bidning all rows complete for panel ID: 1213"
[1] "Saving an original table with all columns"
# A tibble: 35 × 2
   clinvar_clnsig                                               n
   <chr>                                                    <int>
 1 4824                                                         1
 2 Affects                                                     22
 3 Benign                                                    5866
 4 Benign/Likely_benign                                      2004
 5 Benign/Likely_benign|other                                   4
 6 Benign/Likely_benign|risk_factor                             1
 7 Benign|other                                                 1
 8 Conflicting_interpretations_of_pathogenicity              9507
 9 Conflicting_interpretations_of_pathogenicity|association     1
10 Conflicting_interpretations_of_pathogenicity|other           5
# ℹ 25 more rows
…
