START AT Thu Mar 27 11:24:42 AM CET 2025
Now running panel ID: 96
[1] "Now running panel ID: 96"
[1] "Running on all chromosomes for panel ID: 96"
[1] "Bidning all rows complete for panel ID: 96"
[1] "Saving an original table with all columns"
# A tibble: 46 × 2
   clinvar_clnsig                                               n
   <chr>                                                    <int>
 1 0.999998032244276                                            1
 2 Affects                                                     37
 3 Benign                                                    9549
 4 Benign/Likely_benign                                      2923
 5 Benign/Likely_benign|other                                   5
 6 Benign/Likely_benign|risk_factor                             1
 7 Benign|other                                                 3
 8 Benign|risk_factor                                           1
 9 Conflicting_interpretations_of_pathogenicity             19579
10 Conflicting_interpretations_of_pathogenicity|association     1
# ℹ 36 more rows
…
