START AT Thu Mar 27 11:26:16 AM CET 2025
Now running panel ID: 549
[1] "Now running panel ID: 549"
[1] "Running on all chromosomes for panel ID: 549"
[1] "Bidning all rows complete for panel ID: 549"
[1] "Saving an original table with all columns"
# A tibble: 46 × 2
   clinvar_clnsig                             n
   <chr>                                  <int>
 1 Affects                                   44
 2 Benign                                 11778
 3 Benign/Likely_benign                    3843
 4 Benign/Likely_benign|association           1
 5 Benign/Likely_benign|other                 1
 6 Benign/Likely_benign|other|risk_factor     1
 7 Benign/Likely_benign|risk_factor           1
 8 Benign|other                               1
 9 Benign|protective                          1
10 Benign|risk_factor                         1
# ℹ 36 more rows
…
