START AT Thu Mar 27 11:25:35 AM CET 2025
Now running panel ID: 111
[1] "Now running panel ID: 111"
[1] "Running on all chromosomes for panel ID: 111"
[1] "Bidning all rows complete for panel ID: 111"
[1] "Saving an original table with all columns"
# A tibble: 51 × 2
   clinvar_clnsig                                                           n
   <chr>                                                                <int>
 1 Affects                                                                 49
 2 Affects|association                                                      1
 3 Benign                                                               11985
 4 Benign/Likely_benign                                                  3481
 5 Benign/Likely_benign|other                                               5
 6 Benign|other                                                             2
 7 Conflicting_interpretations_of_pathogenicity                         25013
 8 Conflicting_interpretations_of_pathogenicity|Affects                     1
 9 Conflicting_interpretations_of_pathogenicity|association                 3
10 Conflicting_interpretations_of_pathogenicity|association|risk_factor     1
# ℹ 41 more rows
…
