START AT Thu Mar 27 11:21:55 AM CET 2025
Now running panel ID: 31
[1] "Now running panel ID: 31"
[1] "Running on all chromosomes for panel ID: 31"
[1] "Bidning all rows complete for panel ID: 31"
[1] "Saving an original table with all columns"
# A tibble: 65 × 2
   clinvar_clnsig                               n
   <chr>                                    <int>
 1 13378                                        1
 2 Affects                                     53
 3 Benign                                   15834
 4 Benign/Likely_benign                      5117
 5 Benign/Likely_benign|association             1
 6 Benign/Likely_benign|drug_response           2
 7 Benign/Likely_benign|drug_response|other     1
 8 Benign/Likely_benign|other                   2
 9 Benign/Likely_benign|other|risk_factor       1
10 Benign/Likely_benign|risk_factor             1
# ℹ 55 more rows
…
