START AT Thu Mar 27 11:26:38 AM CET 2025
Now running panel ID: 678
[1] "Now running panel ID: 678"
[1] "Running on all chromosomes for panel ID: 678"
[1] "Bidning all rows complete for panel ID: 678"
[1] "Saving an original table with all columns"
# A tibble: 52 × 2
   clinvar_clnsig                                   n
   <chr>                                        <int>
 1 Affects                                         38
 2 Affects|association                              1
 3 Benign                                       13009
 4 Benign/Likely_benign                          4013
 5 Benign/Likely_benign|association                 1
 6 Benign/Likely_benign|other                       4
 7 Benign/Likely_benign|other|risk_factor           1
 8 Benign|drug_response                             1
 9 Benign|other                                     4
10 Conflicting_interpretations_of_pathogenicity 25748
# ℹ 42 more rows
…
