START AT Thu Mar 27 06:15:57 PM CET 2025
Now running panel ID: 1366
[1] "Now running panel ID: 1366"
[1] "Running on all chromosomes for panel ID: 1366"
[1] "Bidning all rows complete for panel ID: 1366"
[1] "Saving an original table with all columns"
# A tibble: 54 × 2
   clinvar_clnsig                       n
   <chr>                            <int>
 1 Affects                             60
 2 Benign                           15257
 3 Benign/Likely_benign              4563
 4 Benign/Likely_benign|other           6
 5 Benign/Likely_benign|risk_factor     1
 6 Benign|association                   1
 7 Benign|confers_sensitivity           1
 8 Benign|other                         7
 9 Benign|protective                    1
10 Benign|risk_factor                   1
# ℹ 44 more rows
…
