START AT Thu Mar 27 04:44:02 PM CET 2025
Now running panel ID: 1076
[1] "Now running panel ID: 1076"
[1] "Running on all chromosomes for panel ID: 1076"
[1] "Bidning all rows complete for panel ID: 1076"
[1] "Saving an original table with all columns"
# A tibble: 44 × 2
   clinvar_clnsig                                         n
   <chr>                                              <int>
 1 0.000000e+00                                           1
 2 Affects                                                7
 3 Benign                                              6139
 4 Benign/Likely_benign                                1812
 5 Benign/Likely_benign|association                       1
 6 Benign/Likely_benign|other                             4
 7 Benign/Likely_benign|other|risk_factor                 1
 8 Benign|other                                           1
 9 Conflicting_interpretations_of_pathogenicity       13607
10 Conflicting_interpretations_of_pathogenicity|other     5
# ℹ 34 more rows
…
