START AT Thu Mar 27 11:28:16 AM CET 2025
Now running panel ID: 236
[1] "Now running panel ID: 236"
[1] "Running on all chromosomes for panel ID: 236"
[1] "Bidning all rows complete for panel ID: 236"
[1] "Saving an original table with all columns"
# A tibble: 31 × 2
   clinvar_clnsig                                                     n
   <chr>                                                          <int>
 1 Affects                                                           18
 2 Benign                                                          5113
 3 Benign/Likely_benign                                            1702
 4 Benign/Likely_benign|other                                         3
 5 Benign|other                                                       1
 6 Conflicting_interpretations_of_pathogenicity                    8712
 7 Conflicting_interpretations_of_pathogenicity|association           2
 8 Conflicting_interpretations_of_pathogenicity|other                 4
 9 Conflicting_interpretations_of_pathogenicity|other|risk_factor     2
10 Conflicting_interpretations_of_pathogenicity|risk_factor           2
# ℹ 21 more rows
…
