START AT Thu Mar 27 05:03:20 PM CET 2025
Now running panel ID: 1226
[1] "Now running panel ID: 1226"
[1] "Running on all chromosomes for panel ID: 1226"
[1] "Bidning all rows complete for panel ID: 1226"
[1] "Saving an original table with all columns"
# A tibble: 35 × 2
   clinvar_clnsig                                                     n
   <chr>                                                          <int>
 1 Affects                                                           23
 2 Benign                                                          5790
 3 Benign/Likely_benign                                            1832
 4 Benign/Likely_benign|other                                         5
 5 Benign/Likely_benign|risk_factor                                   1
 6 Benign|other                                                       2
 7 Benign|risk_factor                                                 1
 8 Conflicting_interpretations_of_pathogenicity                    8968
 9 Conflicting_interpretations_of_pathogenicity|other                 5
10 Conflicting_interpretations_of_pathogenicity|other|risk_factor     1
# ℹ 25 more rows
…
