START AT Thu Mar 27 11:26:16 AM CET 2025
Now running panel ID: 541
[1] "Now running panel ID: 541"
[1] "Running on all chromosomes for panel ID: 541"
[1] "Bidning all rows complete for panel ID: 541"
[1] "Saving an original table with all columns"
# A tibble: 57 × 2
   clinvar_clnsig                               n
   <chr>                                    <int>
 1 Affects                                     45
 2 Affects|association                          1
 3 Benign                                   14198
 4 Benign/Likely_benign                      4599
 5 Benign/Likely_benign|drug_response           2
 6 Benign/Likely_benign|drug_response|other     1
 7 Benign/Likely_benign|other                   3
 8 Benign|drug_response                         1
 9 Benign|other                                 5
10 Benign|protective                            1
# ℹ 47 more rows
…
