START AT Thu Mar 27 11:24:42 AM CET 2025
Now running panel ID: 78
[1] "Now running panel ID: 78"
[1] "Running on all chromosomes for panel ID: 78"
[1] "Bidning all rows complete for panel ID: 78"
[1] "Saving an original table with all columns"
# A tibble: 54 × 2
   clinvar_clnsig                                   n
   <chr>                                        <int>
 1 Affects                                         53
 2 Affects|risk_factor                              1
 3 Benign                                       13379
 4 Benign/Likely_benign                          4323
 5 Benign/Likely_benign|other                       5
 6 Benign/Likely_benign|risk_factor                 1
 7 Benign|association                               1
 8 Benign|drug_response                             1
 9 Benign|other                                     2
10 Conflicting_interpretations_of_pathogenicity 26856
# ℹ 44 more rows
…
