START AT Thu Mar 27 05:05:03 PM CET 2025
Now running panel ID: 1310
[1] "Now running panel ID: 1310"
[1] "Running on all chromosomes for panel ID: 1310"
[1] "Bidning all rows complete for panel ID: 1310"
[1] "Saving an original table with all columns"
# A tibble: 48 × 2
   clinvar_clnsig                                               n
   <chr>                                                    <int>
 1 Affects                                                     33
 2 Benign                                                    8198
 3 Benign/Likely_benign                                      2751
 4 Benign/Likely_benign|other                                   5
 5 Benign/Likely_benign|risk_factor                             1
 6 Benign|association                                           1
 7 Benign|other                                                 2
 8 Benign|risk_factor                                           1
 9 Conflicting_interpretations_of_pathogenicity             12392
10 Conflicting_interpretations_of_pathogenicity|association     1
# ℹ 38 more rows
…
