START AT Thu Mar 27 05:00:18 PM CET 2025
Now running panel ID: 1223
[1] "Now running panel ID: 1223"
[1] "Running on all chromosomes for panel ID: 1223"
[1] "Bidning all rows complete for panel ID: 1223"
[1] "Saving an original table with all columns"
# A tibble: 36 × 2
   clinvar_clnsig                                                     n
   <chr>                                                          <int>
 1 Affects                                                            5
 2 Benign                                                          5006
 3 Benign/Likely_benign                                            1190
 4 Benign/Likely_benign|other                                         3
 5 Conflicting_interpretations_of_pathogenicity                   11165
 6 Conflicting_interpretations_of_pathogenicity|Affects               1
 7 Conflicting_interpretations_of_pathogenicity|association           1
 8 Conflicting_interpretations_of_pathogenicity|other                 2
 9 Conflicting_interpretations_of_pathogenicity|other|risk_factor     1
10 Conflicting_interpretations_of_pathogenicity|risk_factor           1
# ℹ 26 more rows
…
