START AT Thu Mar 27 04:42:48 PM CET 2025
Now running panel ID: 1075
[1] "Now running panel ID: 1075"
[1] "Running on all chromosomes for panel ID: 1075"
[1] "Bidning all rows complete for panel ID: 1075"
[1] "Saving an original table with all columns"
# A tibble: 42 × 2
   clinvar_clnsig                                               n
   <chr>                                                    <int>
 1 0.96076                                                      1
 2 Affects                                                      5
 3 Benign                                                    5981
 4 Benign/Likely_benign                                      1808
 5 Benign/Likely_benign|association                             1
 6 Benign/Likely_benign|other                                   3
 7 Benign/Likely_benign|other|risk_factor                       1
 8 Benign|other                                                 1
 9 Conflicting_interpretations_of_pathogenicity             15242
10 Conflicting_interpretations_of_pathogenicity|association     1
# ℹ 32 more rows
…
