START AT Thu Mar 27 05:04:39 PM CET 2025
Now running panel ID: 1308
[1] "Now running panel ID: 1308"
[1] "Running on all chromosomes for panel ID: 1308"
[1] "Bidning all rows complete for panel ID: 1308"
[1] "Saving an original table with all columns"
# A tibble: 50 × 2
   clinvar_clnsig                                   n
   <chr>                                        <int>
 1 Affects                                         39
 2 Benign                                       10957
 3 Benign/Likely_benign                          3220
 4 Benign/Likely_benign|association                 1
 5 Benign/Likely_benign|other                       5
 6 Benign/Likely_benign|other|risk_factor           1
 7 Benign/Likely_benign|risk_factor                 1
 8 Benign|other                                     2
 9 Benign|risk_factor                               1
10 Conflicting_interpretations_of_pathogenicity 20288
# ℹ 40 more rows
…
