START AT Thu Mar 27 05:26:00 PM CET 2025
Now running panel ID: 1332
[1] "Now running panel ID: 1332"
[1] "Running on all chromosomes for panel ID: 1332"
[1] "Bidning all rows complete for panel ID: 1332"
[1] "Saving an original table with all columns"
# A tibble: 49 × 2
   clinvar_clnsig                                               n
   <chr>                                                    <int>
 1 Affects                                                     17
 2 Benign                                                   10544
 3 Benign/Likely_benign                                      3346
 4 Benign/Likely_benign|other                                   4
 5 Benign/Likely_benign|risk_factor                             1
 6 Benign|association                                           1
 7 Benign|other                                                 1
 8 Conflicting_interpretations_of_pathogenicity             21289
 9 Conflicting_interpretations_of_pathogenicity|association     4
10 Conflicting_interpretations_of_pathogenicity|other           5
# ℹ 39 more rows
…
