START AT Thu Mar 27 11:27:07 AM CET 2025
Now running panel ID: 174
[1] "Now running panel ID: 174"
[1] "Running on all chromosomes for panel ID: 174"
[1] "Bidning all rows complete for panel ID: 174"
[1] "Saving an original table with all columns"
# A tibble: 33 × 2
   clinvar_clnsig                                               n
   <chr>                                                    <int>
 1 0.39223                                                      1
 2 0.68203                                                      1
 3 Affects                                                     10
 4 Benign                                                    5524
 5 Benign/Likely_benign                                      1685
 6 Benign/Likely_benign|other                                   4
 7 Benign/Likely_benign|risk_factor                             1
 8 Benign|other                                                 1
 9 Conflicting_interpretations_of_pathogenicity              8867
10 Conflicting_interpretations_of_pathogenicity|association     2
# ℹ 23 more rows
…
