START AT Thu Mar 27 04:10:36 PM CET 2025
Now running panel ID: 734
[1] "Now running panel ID: 734"
[1] "Running on all chromosomes for panel ID: 734"
[1] "Bidning all rows complete for panel ID: 734"
[1] "Saving an original table with all columns"
# A tibble: 42 × 2
   clinvar_clnsig                                                     n
   <chr>                                                          <int>
 1 Affects                                                           13
 2 Benign                                                          6908
 3 Benign/Likely_benign                                            1948
 4 Benign/Likely_benign|other                                         3
 5 Benign/Likely_benign|risk_factor                                   1
 6 Benign|other                                                       1
 7 Conflicting_interpretations_of_pathogenicity                   14731
 8 Conflicting_interpretations_of_pathogenicity|association           2
 9 Conflicting_interpretations_of_pathogenicity|other                 7
10 Conflicting_interpretations_of_pathogenicity|other|risk_factor     1
# ℹ 32 more rows
…
