START AT Thu Mar 27 11:26:38 AM CET 2025
Now running panel ID: 648
[1] "Now running panel ID: 648"
[1] "Running on all chromosomes for panel ID: 648"
[1] "Bidning all rows complete for panel ID: 648"
[1] "Saving an original table with all columns"
# A tibble: 52 × 2
   clinvar_clnsig                                               n
   <chr>                                                    <int>
 1 Affects                                                     38
 2 Benign                                                   13646
 3 Benign/Likely_benign                                      4188
 4 Benign/Likely_benign|drug_response                           2
 5 Benign/Likely_benign|drug_response|other                     1
 6 Benign/Likely_benign|other                                   4
 7 Benign|drug_response                                         1
 8 Benign|other                                                 1
 9 Conflicting_interpretations_of_pathogenicity             25609
10 Conflicting_interpretations_of_pathogenicity|association     2
# ℹ 42 more rows
…
