START AT Thu Mar 27 11:28:16 AM CET 2025
Now running panel ID: 244
[1] "Now running panel ID: 244"
[1] "Running on all chromosomes for panel ID: 244"
[1] "Bidning all rows complete for panel ID: 244"
[1] "Saving an original table with all columns"
# A tibble: 40 × 2
   clinvar_clnsig                                                     n
   <chr>                                                          <int>
 1 Affects                                                           10
 2 Benign                                                          5800
 3 Benign/Likely_benign                                            1656
 4 Benign/Likely_benign|other                                         4
 5 Benign|other                                                       1
 6 Conflicting_interpretations_of_pathogenicity                   12759
 7 Conflicting_interpretations_of_pathogenicity|Affects               1
 8 Conflicting_interpretations_of_pathogenicity|association           1
 9 Conflicting_interpretations_of_pathogenicity|other                 3
10 Conflicting_interpretations_of_pathogenicity|other|risk_factor     2
# ℹ 30 more rows
…
