START AT Thu Mar 27 05:21:12 PM CET 2025
Now running panel ID: 1324
[1] "Now running panel ID: 1324"
[1] "Running on all chromosomes for panel ID: 1324"
[1] "Bidning all rows complete for panel ID: 1324"
[1] "Saving an original table with all columns"
# A tibble: 40 × 2
   clinvar_clnsig                                                     n
   <chr>                                                          <int>
 1 Affects                                                           11
 2 Benign                                                          6617
 3 Benign/Likely_benign                                            1883
 4 Benign/Likely_benign|other                                         4
 5 Benign|other                                                       2
 6 Benign|risk_factor                                                 1
 7 Conflicting_interpretations_of_pathogenicity                   14171
 8 Conflicting_interpretations_of_pathogenicity|association           1
 9 Conflicting_interpretations_of_pathogenicity|other                 3
10 Conflicting_interpretations_of_pathogenicity|other|risk_factor     1
# ℹ 30 more rows
…
