START AT Thu Mar 27 11:21:55 AM CET 2025
Now running panel ID: 20
[1] "Now running panel ID: 20"
[1] "Running on all chromosomes for panel ID: 20"
[1] "Bidning all rows complete for panel ID: 20"
[1] "Saving an original table with all columns"
# A tibble: 62 × 2
   clinvar_clnsig                               n
   <chr>                                    <int>
 1 Affects                                     73
 2 Benign                                   16665
 3 Benign/Likely_benign                      5567
 4 Benign/Likely_benign|association             1
 5 Benign/Likely_benign|drug_response           2
 6 Benign/Likely_benign|drug_response|other     1
 7 Benign/Likely_benign|other                   2
 8 Benign/Likely_benign|other|risk_factor       1
 9 Benign/Likely_benign|risk_factor             2
10 Benign|drug_response                         1
# ℹ 52 more rows
…
