START AT Thu Mar 27 11:21:55 AM CET 2025
Now running panel ID: 24
[1] "Now running panel ID: 24"
[1] "Running on all chromosomes for panel ID: 24"
[1] "Bidning all rows complete for panel ID: 24"
[1] "Saving an original table with all columns"
# A tibble: 65 × 2
   clinvar_clnsig                               n
   <chr>                                    <int>
 1 Affects                                     79
 2 Affects|association                          1
 3 Benign                                   19921
 4 Benign/Likely_benign                      6698
 5 Benign/Likely_benign|drug_response           2
 6 Benign/Likely_benign|drug_response|other     1
 7 Benign/Likely_benign|other                   6
 8 Benign/Likely_benign|risk_factor             2
 9 Benign|confers_sensitivity                   1
10 Benign|drug_response                         1
# ℹ 55 more rows
…
