START AT Thu Mar 27 11:26:38 AM CET 2025
Now running panel ID: 635
[1] "Now running panel ID: 635"
[1] "Running on all chromosomes for panel ID: 635"
[1] "Bidning all rows complete for panel ID: 635"
[1] "Saving an original table with all columns"
# A tibble: 56 × 2
   clinvar_clnsig                             n
   <chr>                                  <int>
 1 Affects                                   47
 2 Affects|association                        1
 3 Benign                                 13562
 4 Benign/Likely_benign                    4293
 5 Benign/Likely_benign|association           1
 6 Benign/Likely_benign|other                 6
 7 Benign/Likely_benign|other|risk_factor     1
 8 Benign|association                         1
 9 Benign|other                               6
10 Benign|risk_factor                         1
# ℹ 46 more rows
…
