START AT Thu Mar 27 05:11:37 PM CET 2025
Now running panel ID: 1315
[1] "Now running panel ID: 1315"
[1] "Running on all chromosomes for panel ID: 1315"
[1] "Bidning all rows complete for panel ID: 1315"
[1] "Saving an original table with all columns"
# A tibble: 55 × 2
   clinvar_clnsig                             n
   <chr>                                  <int>
 1 Affects                                   50
 2 Benign                                 15593
 3 Benign/Likely_benign                    4866
 4 Benign/Likely_benign|association           1
 5 Benign/Likely_benign|other                 5
 6 Benign/Likely_benign|other|risk_factor     1
 7 Benign/Likely_benign|risk_factor           1
 8 Benign|association                         1
 9 Benign|drug_response                       1
10 Benign|other                               2
# ℹ 45 more rows
…
