START AT Thu Mar 27 05:31:54 PM CET 2025
Now running panel ID: 1337
[1] "Now running panel ID: 1337"
[1] "Running on all chromosomes for panel ID: 1337"
[1] "Bidning all rows complete for panel ID: 1337"
[1] "Saving an original table with all columns"
# A tibble: 63 × 2
   clinvar_clnsig                               n
   <chr>                                    <int>
 1 0                                            1
 2 1.000000                                     1
 3 Affects                                     52
 4 Benign                                   13892
 5 Benign/Likely_benign                      4570
 6 Benign/Likely_benign|association             1
 7 Benign/Likely_benign|drug_response           2
 8 Benign/Likely_benign|drug_response|other     1
 9 Benign/Likely_benign|other                   6
10 Benign/Likely_benign|other|risk_factor       1
# ℹ 53 more rows
…
