START AT Thu Mar 27 11:21:58 AM CET 2025
Now running panel ID: 3
[1] "Now running panel ID: 3"
[1] "Running on all chromosomes for panel ID: 3"
[1] "Bidning all rows complete for panel ID: 3"
[1] "Saving an original table with all columns"
# A tibble: 75 × 2
   clinvar_clnsig                               n
   <chr>                                    <int>
 1 Affects                                    104
 2 Affects|association                          1
 3 Affects|risk_factor                          1
 4 Benign                                   28216
 5 Benign/Likely_benign                      9115
 6 Benign/Likely_benign|association             1
 7 Benign/Likely_benign|drug_response           2
 8 Benign/Likely_benign|drug_response|other     1
 9 Benign/Likely_benign|other                   6
10 Benign/Likely_benign|other|risk_factor       1
# ℹ 65 more rows
…
