START AT Thu Mar 27 11:27:07 AM CET 2025
Now running panel ID: 212
[1] "Now running panel ID: 212"
[1] "Running on all chromosomes for panel ID: 212"
[1] "Bidning all rows complete for panel ID: 212"
[1] "Saving an original table with all columns"
# A tibble: 35 × 2
   clinvar_clnsig                                               n
   <chr>                                                    <int>
 1 0                                                            1
 2 Affects                                                     12
 3 Affects|association                                          1
 4 Benign                                                    6215
 5 Benign/Likely_benign                                      1749
 6 Benign/Likely_benign|other                                   4
 7 Benign|other                                                 1
 8 Conflicting_interpretations_of_pathogenicity              8926
 9 Conflicting_interpretations_of_pathogenicity|association     2
10 Conflicting_interpretations_of_pathogenicity|other           4
# ℹ 25 more rows
…
