START AT Thu Mar 27 11:26:38 AM CET 2025
Now running panel ID: 600
[1] "Now running panel ID: 600"
[1] "Running on all chromosomes for panel ID: 600"
[1] "Bidning all rows complete for panel ID: 600"
[1] "Saving an original table with all columns"
# A tibble: 47 × 2
   clinvar_clnsig                                               n
   <chr>                                                    <int>
 1 Affects                                                     41
 2 Benign                                                   11940
 3 Benign/Likely_benign                                      3615
 4 Benign/Likely_benign|other                                   4
 5 Benign|association                                           1
 6 Benign|other                                                 1
 7 Conflicting_interpretations_of_pathogenicity             22053
 8 Conflicting_interpretations_of_pathogenicity|Affects         1
 9 Conflicting_interpretations_of_pathogenicity|association     2
10 Conflicting_interpretations_of_pathogenicity|other           7
# ℹ 37 more rows
…
