START AT Thu Mar 27 05:14:43 PM CET 2025
Now running panel ID: 1318
[1] "Now running panel ID: 1318"
[1] "Running on all chromosomes for panel ID: 1318"
[1] "Bidning all rows complete for panel ID: 1318"
[1] "Saving an original table with all columns"
# A tibble: 54 × 2
   clinvar_clnsig                                           n
   <chr>                                                <int>
 1 10622                                                    1
 2 Affects                                                 21
 3 Benign                                               11031
 4 Benign/Likely_benign                                  3489
 5 Benign/Likely_benign|other                               4
 6 Benign/Likely_benign|risk_factor                         1
 7 Benign|other                                             1
 8 Benign|risk_factor                                       1
 9 Conflicting_interpretations_of_pathogenicity         22698
10 Conflicting_interpretations_of_pathogenicity|Affects     1
# ℹ 44 more rows
…
