START AT Thu Mar 27 04:41:03 PM CET 2025
Now running panel ID: 943
[1] "Now running panel ID: 943"
[1] "Running on all chromosomes for panel ID: 943"
[1] "Bidning all rows complete for panel ID: 943"
[1] "Saving an original table with all columns"
# A tibble: 46 × 2
   clinvar_clnsig                               n
   <chr>                                    <int>
 1 0                                            1
 2 2918                                         1
 3 Affects                                     15
 4 Benign                                    6500
 5 Benign/Likely_benign                      1880
 6 Benign/Likely_benign|drug_response           2
 7 Benign/Likely_benign|drug_response|other     1
 8 Benign/Likely_benign|other                   4
 9 Benign|drug_response                         1
10 Benign|other                                 2
# ℹ 36 more rows
…
