START AT Thu Mar 27 04:36:44 PM CET 2025
Now running panel ID: 932
[1] "Now running panel ID: 932"
[1] "Running on all chromosomes for panel ID: 932"
[1] "Bidning all rows complete for panel ID: 932"
[1] "Saving an original table with all columns"
# A tibble: 41 × 2
   clinvar_clnsig                                               n
   <chr>                                                    <int>
 1 0                                                            1
 2 Affects                                                     22
 3 Benign                                                    7036
 4 Benign/Likely_benign                                      2261
 5 Benign/Likely_benign|other                                   1
 6 Benign/Likely_benign|risk_factor                             1
 7 Benign|other                                                 1
 8 Conflicting_interpretations_of_pathogenicity             11193
 9 Conflicting_interpretations_of_pathogenicity|association     1
10 Conflicting_interpretations_of_pathogenicity|other           5
# ℹ 31 more rows
…
