START AT Thu Mar 27 11:26:12 AM CET 2025
Now running panel ID: 536
[1] "Now running panel ID: 536"
[1] "Running on all chromosomes for panel ID: 536"
[1] "Bidning all rows complete for panel ID: 536"
[1] "Saving an original table with all columns"
# A tibble: 49 × 2
   clinvar_clnsig                                               n
   <chr>                                                    <int>
 1 Affects                                                     49
 2 Affects|association                                          1
 3 Benign                                                   12487
 4 Benign/Likely_benign                                      3835
 5 Benign/Likely_benign|other                                   5
 6 Benign|other                                                 4
 7 Benign|risk_factor                                           1
 8 Conflicting_interpretations_of_pathogenicity             26087
 9 Conflicting_interpretations_of_pathogenicity|association     6
10 Conflicting_interpretations_of_pathogenicity|other           6
# ℹ 39 more rows
…
