START AT Thu Mar 27 04:42:19 PM CET 2025
Now running panel ID: 945
[1] "Now running panel ID: 945"
[1] "Running on all chromosomes for panel ID: 945"
[1] "Bidning all rows complete for panel ID: 945"
[1] "Saving an original table with all columns"
# A tibble: 49 × 2
   clinvar_clnsig                                               n
   <chr>                                                    <int>
 1 Affects                                                     27
 2 Benign                                                   10986
 3 Benign/Likely_benign                                      3473
 4 Benign/Likely_benign|association                             1
 5 Benign/Likely_benign|other                                   4
 6 Benign/Likely_benign|other|risk_factor                       1
 7 Benign|other                                                 1
 8 Benign|risk_factor                                           1
 9 Conflicting_interpretations_of_pathogenicity             24240
10 Conflicting_interpretations_of_pathogenicity|association     2
# ℹ 39 more rows
…
