START AT Thu Mar 27 07:42:11 PM CET 2025
Now running panel ID: 1383
[1] "Now running panel ID: 1383"
[1] "Running on all chromosomes for panel ID: 1383"
[1] "Bidning all rows complete for panel ID: 1383"
[1] "Saving an original table with all columns"
# A tibble: 64 × 2
   clinvar_clnsig                       n
   <chr>                            <int>
 1 Affects                             77
 2 Benign                           21000
 3 Benign/Likely_benign              6570
 4 Benign/Likely_benign|other           5
 5 Benign/Likely_benign|risk_factor     3
 6 Benign|association                   1
 7 Benign|confers_sensitivity           1
 8 Benign|drug_response                 1
 9 Benign|other                         5
10 Benign|risk_factor                   1
# ℹ 54 more rows
…
