START AT Thu Mar 27 09:17:49 PM CET 2025
Now running panel ID: 1504
[1] "Now running panel ID: 1504"
[1] "Running on all chromosomes for panel ID: 1504"
[1] "Bidning all rows complete for panel ID: 1504"
[1] "Saving an original table with all columns"
# A tibble: 68 × 2
   clinvar_clnsig                               n
   <chr>                                    <int>
 1 Affects                                     84
 2 Affects|risk_factor                          1
 3 Benign                                   23203
 4 Benign/Likely_benign                      7498
 5 Benign/Likely_benign|drug_response           2
 6 Benign/Likely_benign|drug_response|other     1
 7 Benign/Likely_benign|other                   6
 8 Benign/Likely_benign|risk_factor             1
 9 Benign|association                           1
10 Benign|confers_sensitivity                   1
# ℹ 58 more rows
…
