START AT Thu Mar 27 11:28:16 AM CET 2025
Now running panel ID: 245
[1] "Now running panel ID: 245"
[1] "Running on all chromosomes for panel ID: 245"
[1] "Bidning all rows complete for panel ID: 245"
[1] "Saving an original table with all columns"
# A tibble: 38 × 2
   clinvar_clnsig                                               n
   <chr>                                                    <int>
 1 0.88157                                                      1
 2 Affects                                                      9
 3 Benign                                                    6147
 4 Benign/Likely_benign                                      1639
 5 Benign/Likely_benign|other                                   4
 6 Benign|other                                                 1
 7 Benign|risk_factor                                           1
 8 Conflicting_interpretations_of_pathogenicity             12495
 9 Conflicting_interpretations_of_pathogenicity|association     2
10 Conflicting_interpretations_of_pathogenicity|other           3
# ℹ 28 more rows
…
