START AT Thu Mar 27 04:20:33 PM CET 2025
Now running panel ID: 772
[1] "Now running panel ID: 772"
[1] "Running on all chromosomes for panel ID: 772"
[1] "Bidning all rows complete for panel ID: 772"
[1] "Saving an original table with all columns"
# A tibble: 46 × 2
   clinvar_clnsig                             n
   <chr>                                  <int>
 1 Affects                                   33
 2 Affects|association                        1
 3 Benign                                 11515
 4 Benign/Likely_benign                    3648
 5 Benign/Likely_benign|association           1
 6 Benign/Likely_benign|other                 4
 7 Benign/Likely_benign|other|risk_factor     1
 8 Benign|other                               2
 9 Benign|protective                          1
10 Benign|risk_factor                         1
# ℹ 36 more rows
…
