START AT Thu Mar 27 11:28:16 AM CET 2025
Now running panel ID: 249
[1] "Now running panel ID: 249"
[1] "Running on all chromosomes for panel ID: 249"
[1] "Bidning all rows complete for panel ID: 249"
[1] "Saving an original table with all columns"
# A tibble: 35 × 2
   clinvar_clnsig                                                     n
   <chr>                                                          <int>
 1 Affects                                                            6
 2 Benign                                                          5179
 3 Benign/Likely_benign                                            1529
 4 Benign/Likely_benign|other                                         3
 5 Benign|other                                                       1
 6 Conflicting_interpretations_of_pathogenicity                    7382
 7 Conflicting_interpretations_of_pathogenicity|association           1
 8 Conflicting_interpretations_of_pathogenicity|other                 2
 9 Conflicting_interpretations_of_pathogenicity|other|risk_factor     1
10 Conflicting_interpretations_of_pathogenicity|risk_factor           2
# ℹ 25 more rows
…
