START AT Thu Mar 27 04:56:31 PM CET 2025
Now running panel ID: 1217
[1] "Now running panel ID: 1217"
[1] "Running on all chromosomes for panel ID: 1217"
[1] "Bidning all rows complete for panel ID: 1217"
[1] "Saving an original table with all columns"
# A tibble: 43 × 2
   clinvar_clnsig                                   n
   <chr>                                        <int>
 1 Affects                                         21
 2 Benign                                        7583
 3 Benign/Likely_benign                          2210
 4 Benign/Likely_benign|association                 1
 5 Benign/Likely_benign|other                       1
 6 Benign/Likely_benign|other|risk_factor           1
 7 Benign/Likely_benign|risk_factor                 1
 8 Benign|other                                     2
 9 Benign|risk_factor                               1
10 Conflicting_interpretations_of_pathogenicity 18472
# ℹ 33 more rows
…
