START AT Thu Mar 27 04:35:10 PM CET 2025
Now running panel ID: 929
[1] "Now running panel ID: 929"
[1] "Running on all chromosomes for panel ID: 929"
[1] "Bidning all rows complete for panel ID: 929"
[1] "Saving an original table with all columns"
# A tibble: 46 × 2
   clinvar_clnsig                                               n
   <chr>                                                    <int>
 1 0.000000e+00                                                 1
 2 Affects                                                     20
 3 Benign                                                    7940
 4 Benign/Likely_benign                                      2372
 5 Benign/Likely_benign|other                                   4
 6 Benign|association                                           1
 7 Benign|other                                                 2
 8 Benign|risk_factor                                           1
 9 Conflicting_interpretations_of_pathogenicity             15800
10 Conflicting_interpretations_of_pathogenicity|association     1
# ℹ 36 more rows
…
