START AT Thu Mar 27 06:16:32 PM CET 2025
Now running panel ID: 1368
[1] "Now running panel ID: 1368"
[1] "Running on all chromosomes for panel ID: 1368"
[1] "Bidning all rows complete for panel ID: 1368"
[1] "Saving an original table with all columns"
# A tibble: 63 × 2
   clinvar_clnsig                               n
   <chr>                                    <int>
 1 Affects                                     58
 2 Affects|association                          1
 3 Benign                                   17957
 4 Benign/Likely_benign                      5663
 5 Benign/Likely_benign|drug_response           2
 6 Benign/Likely_benign|drug_response|other     1
 7 Benign/Likely_benign|other                   6
 8 Benign/Likely_benign|risk_factor             2
 9 Benign|confers_sensitivity                   1
10 Benign|drug_response                         1
# ℹ 53 more rows
…
