START AT Thu Mar 27 11:27:07 AM CET 2025
Now running panel ID: 179
[1] "Now running panel ID: 179"
[1] "Running on all chromosomes for panel ID: 179"
[1] "Bidning all rows complete for panel ID: 179"
[1] "Saving an original table with all columns"
# A tibble: 39 × 2
   clinvar_clnsig                                                     n
   <chr>                                                          <int>
 1 0.000000e+00                                                       1
 2 Affects                                                           12
 3 Benign                                                          6659
 4 Benign/Likely_benign                                            2085
 5 Benign/Likely_benign|other                                         3
 6 Benign|other                                                       1
 7 Conflicting_interpretations_of_pathogenicity                    9775
 8 Conflicting_interpretations_of_pathogenicity|association           1
 9 Conflicting_interpretations_of_pathogenicity|other                 3
10 Conflicting_interpretations_of_pathogenicity|other|risk_factor     1
# ℹ 29 more rows
…
