START AT Thu Mar 27 06:09:27 PM CET 2025
Now running panel ID: 1364
[1] "Now running panel ID: 1364"
[1] "Running on all chromosomes for panel ID: 1364"
[1] "Bidning all rows complete for panel ID: 1364"
[1] "Saving an original table with all columns"
# A tibble: 52 × 2
   clinvar_clnsig                               n
   <chr>                                    <int>
 1 1;2;5;1;1;1;1;1                              1
 2 Affects                                     21
 3 Affects|association                          1
 4 Benign                                    9916
 5 Benign/Likely_benign                      3031
 6 Benign/Likely_benign|association             1
 7 Benign/Likely_benign|drug_response           2
 8 Benign/Likely_benign|drug_response|other     1
 9 Benign/Likely_benign|other                   5
10 Benign/Likely_benign|other|risk_factor       1
# ℹ 42 more rows
…
