START AT Thu Mar 27 05:23:27 PM CET 2025
Now running panel ID: 1329
[1] "Now running panel ID: 1329"
[1] "Running on all chromosomes for panel ID: 1329"
[1] "Bidning all rows complete for panel ID: 1329"
[1] "Saving an original table with all columns"
# A tibble: 46 × 2
   clinvar_clnsig                                               n
   <chr>                                                    <int>
 1 Affects                                                     26
 2 Benign                                                    8703
 3 Benign/Likely_benign                                      2815
 4 Benign/Likely_benign|other                                   4
 5 Benign|association                                           1
 6 Benign|other                                                 1
 7 Benign|risk_factor                                           1
 8 Conflicting_interpretations_of_pathogenicity             12980
 9 Conflicting_interpretations_of_pathogenicity|association     1
10 Conflicting_interpretations_of_pathogenicity|other           5
# ℹ 36 more rows
…
