START AT Thu Mar 27 11:25:35 AM CET 2025
Now running panel ID: 110
[1] "Now running panel ID: 110"
[1] "Running on all chromosomes for panel ID: 110"
[1] "Bidning all rows complete for panel ID: 110"
[1] "Saving an original table with all columns"
# A tibble: 48 × 2
   clinvar_clnsig                                               n
   <chr>                                                    <int>
 1 0.000000e+00                                                 1
 2 Affects                                                     34
 3 Affects|association                                          1
 4 Benign                                                   12710
 5 Benign/Likely_benign                                      3968
 6 Benign/Likely_benign|other                                   4
 7 Benign|other                                                 1
 8 Conflicting_interpretations_of_pathogenicity             24531
 9 Conflicting_interpretations_of_pathogenicity|Affects         1
10 Conflicting_interpretations_of_pathogenicity|association     1
# ℹ 38 more rows
…
