START AT Thu Mar 27 11:26:16 AM CET 2025
Now running panel ID: 546
[1] "Now running panel ID: 546"
[1] "Running on all chromosomes for panel ID: 546"
[1] "Bidning all rows complete for panel ID: 546"
[1] "Saving an original table with all columns"
# A tibble: 50 × 2
   clinvar_clnsig                                   n
   <chr>                                        <int>
 1 Affects                                         45
 2 Affects|association                              1
 3 Affects|risk_factor                              1
 4 Benign                                       10130
 5 Benign/Likely_benign                          2912
 6 Benign/Likely_benign|other                       3
 7 Benign|drug_response                             1
 8 Benign|other                                     2
 9 Benign|risk_factor                               1
10 Conflicting_interpretations_of_pathogenicity 20210
# ℹ 40 more rows
…
