START AT Thu Mar 27 11:24:42 AM CET 2025
Now running panel ID: 77
[1] "Now running panel ID: 77"
[1] "Running on all chromosomes for panel ID: 77"
[1] "Bidning all rows complete for panel ID: 77"
[1] "Saving an original table with all columns"
# A tibble: 52 × 2
   clinvar_clnsig                                               n
   <chr>                                                    <int>
 1 0                                                            1
 2 Affects                                                     41
 3 Benign                                                   11979
 4 Benign/Likely_benign                                      3807
 5 Benign/Likely_benign|other                                   4
 6 Benign/Likely_benign|risk_factor                             1
 7 Benign|other                                                 2
 8 Benign|risk_factor                                           1
 9 Conflicting_interpretations_of_pathogenicity             23485
10 Conflicting_interpretations_of_pathogenicity|association     5
# ℹ 42 more rows
…
