START AT Thu Mar 27 11:28:16 AM CET 2025
Now running panel ID: 239
[1] "Now running panel ID: 239"
[1] "Running on all chromosomes for panel ID: 239"
[1] "Bidning all rows complete for panel ID: 239"
[1] "Saving an original table with all columns"
# A tibble: 36 × 2
   clinvar_clnsig                                               n
   <chr>                                                    <int>
 1 1359334                                                      1
 2 Affects                                                      5
 3 Benign                                                    5264
 4 Benign/Likely_benign                                      1551
 5 Benign/Likely_benign|other                                   4
 6 Benign|other                                                 1
 7 Conflicting_interpretations_of_pathogenicity             11282
 8 Conflicting_interpretations_of_pathogenicity|association     2
 9 Conflicting_interpretations_of_pathogenicity|other           2
10 Likely_benign                                             7526
# ℹ 26 more rows
…
