START AT Thu Mar 27 05:07:54 PM CET 2025
Now running panel ID: 1312
[1] "Now running panel ID: 1312"
[1] "Running on all chromosomes for panel ID: 1312"
[1] "Bidning all rows complete for panel ID: 1312"
[1] "Saving an original table with all columns"
# A tibble: 38 × 2
   clinvar_clnsig                                                     n
   <chr>                                                          <int>
 1 Affects                                                            8
 2 Benign                                                          6826
 3 Benign/Likely_benign                                            2003
 4 Benign/Likely_benign|other                                         3
 5 Benign/Likely_benign|other|risk_factor                             1
 6 Benign|association                                                 1
 7 Conflicting_interpretations_of_pathogenicity                   14804
 8 Conflicting_interpretations_of_pathogenicity|other                 4
 9 Conflicting_interpretations_of_pathogenicity|other|risk_factor     1
10 Conflicting_interpretations_of_pathogenicity|risk_factor           2
# ℹ 28 more rows
…
