START AT Thu Mar 27 05:13:35 PM CET 2025
Now running panel ID: 1316
[1] "Now running panel ID: 1316"
[1] "Running on all chromosomes for panel ID: 1316"
[1] "Bidning all rows complete for panel ID: 1316"
[1] "Saving an original table with all columns"
# A tibble: 34 × 2
   clinvar_clnsig                                                     n
   <chr>                                                          <int>
 1 0                                                                  1
 2 Affects                                                            6
 3 Benign                                                          5279
 4 Benign/Likely_benign                                            1333
 5 Benign/Likely_benign|other                                         3
 6 Benign/Likely_benign|risk_factor                                   1
 7 Conflicting_interpretations_of_pathogenicity                   12515
 8 Conflicting_interpretations_of_pathogenicity|association           1
 9 Conflicting_interpretations_of_pathogenicity|other                 2
10 Conflicting_interpretations_of_pathogenicity|other|risk_factor     1
# ℹ 24 more rows
…
