START AT Thu Mar 27 05:00:15 PM CET 2025
Now running panel ID: 1222
[1] "Now running panel ID: 1222"
[1] "Running on all chromosomes for panel ID: 1222"
[1] "Bidning all rows complete for panel ID: 1222"
[1] "Saving an original table with all columns"
# A tibble: 31 × 2
   clinvar_clnsig                                                     n
   <chr>                                                          <int>
 1 0.81001                                                            1
 2 Affects                                                           14
 3 Benign                                                          6060
 4 Benign/Likely_benign                                            1678
 5 Benign/Likely_benign|other                                         3
 6 Benign|other                                                       1
 7 Conflicting_interpretations_of_pathogenicity                   13987
 8 Conflicting_interpretations_of_pathogenicity|association           2
 9 Conflicting_interpretations_of_pathogenicity|other                 3
10 Conflicting_interpretations_of_pathogenicity|other|risk_factor     1
# ℹ 21 more rows
…
