START AT Thu Mar 27 11:26:12 AM CET 2025
Now running panel ID: 524
[1] "Now running panel ID: 524"
[1] "Running on all chromosomes for panel ID: 524"
[1] "Bidning all rows complete for panel ID: 524"
[1] "Saving an original table with all columns"
# A tibble: 50 × 2
   clinvar_clnsig                                           n
   <chr>                                                <int>
 1 Affects                                                 45
 2 Affects|association                                      1
 3 Benign                                               11755
 4 Benign/Likely_benign                                  3718
 5 Benign/Likely_benign|other                               4
 6 Benign|association                                       1
 7 Benign|drug_response                                     1
 8 Benign|other                                             1
 9 Conflicting_interpretations_of_pathogenicity         22679
10 Conflicting_interpretations_of_pathogenicity|Affects     1
# ℹ 40 more rows
…
