START AT Thu Mar 27 11:26:16 AM CET 2025
Now running panel ID: 543
[1] "Now running panel ID: 543"
[1] "Running on all chromosomes for panel ID: 543"
[1] "Bidning all rows complete for panel ID: 543"
[1] "Saving an original table with all columns"
# A tibble: 51 × 2
   clinvar_clnsig                                               n
   <chr>                                                    <int>
 1 Affects                                                     38
 2 Affects|association                                          1
 3 Benign                                                   11964
 4 Benign/Likely_benign                                      3730
 5 Benign/Likely_benign|other                                   3
 6 Benign|drug_response                                         1
 7 Benign|other                                                 3
 8 Benign|risk_factor                                           1
 9 Conflicting_interpretations_of_pathogenicity             23091
10 Conflicting_interpretations_of_pathogenicity|association     4
# ℹ 41 more rows
…
