START AT Thu Mar 27 04:58:10 PM CET 2025
Now running panel ID: 1221
[1] "Now running panel ID: 1221"
[1] "Running on all chromosomes for panel ID: 1221"
[1] "Bidning all rows complete for panel ID: 1221"
[1] "Saving an original table with all columns"
# A tibble: 47 × 2
   clinvar_clnsig                               n
   <chr>                                    <int>
 1 Affects                                     23
 2 Benign                                    9461
 3 Benign/Likely_benign                      2928
 4 Benign/Likely_benign|association             1
 5 Benign/Likely_benign|drug_response           2
 6 Benign/Likely_benign|drug_response|other     1
 7 Benign/Likely_benign|other                   2
 8 Benign/Likely_benign|other|risk_factor       1
 9 Benign|drug_response                         1
10 Benign|other                                 2
# ℹ 37 more rows
…
