START AT Thu Mar 27 05:49:36 PM CET 2025
Now running panel ID: 1350
[1] "Now running panel ID: 1350"
[1] "Running on all chromosomes for panel ID: 1350"
[1] "Bidning all rows complete for panel ID: 1350"
[1] "Saving an original table with all columns"
# A tibble: 55 × 2
   clinvar_clnsig                             n
   <chr>                                  <int>
 1 Affects                                   38
 2 Benign                                 14476
 3 Benign/Likely_benign                    4465
 4 Benign/Likely_benign|association           1
 5 Benign/Likely_benign|other                 5
 6 Benign/Likely_benign|other|risk_factor     1
 7 Benign|association                         1
 8 Benign|drug_response                       1
 9 Benign|other                               2
10 Benign|risk_factor                         1
# ℹ 45 more rows
…
