START AT Thu Mar 27 11:27:07 AM CET 2025
Now running panel ID: 208
[1] "Now running panel ID: 208"
[1] "Running on all chromosomes for panel ID: 208"
[1] "Bidning all rows complete for panel ID: 208"
[1] "Saving an original table with all columns"
# A tibble: 36 × 2
   clinvar_clnsig                                                     n
   <chr>                                                          <int>
 1 Affects                                                           14
 2 Benign                                                          5951
 3 Benign/Likely_benign                                            1713
 4 Benign/Likely_benign|other                                         4
 5 Benign|other                                                       1
 6 Conflicting_interpretations_of_pathogenicity                    8471
 7 Conflicting_interpretations_of_pathogenicity|association           2
 8 Conflicting_interpretations_of_pathogenicity|other                 4
 9 Conflicting_interpretations_of_pathogenicity|other|risk_factor     2
10 Conflicting_interpretations_of_pathogenicity|risk_factor           2
# ℹ 26 more rows
…
