START AT Thu Mar 27 06:16:28 PM CET 2025
Now running panel ID: 1367
[1] "Now running panel ID: 1367"
[1] "Running on all chromosomes for panel ID: 1367"
[1] "Bidning all rows complete for panel ID: 1367"
[1] "Saving an original table with all columns"
# A tibble: 61 × 2
   clinvar_clnsig                             n
   <chr>                                  <int>
 1 0.52871                                    1
 2 Affects                                   63
 3 Benign                                 16437
 4 Benign/Likely_benign                    5487
 5 Benign/Likely_benign|other                 6
 6 Benign/Likely_benign|other|risk_factor     1
 7 Benign/Likely_benign|risk_factor           3
 8 Benign|association                         1
 9 Benign|confers_sensitivity                 1
10 Benign|other                               6
# ℹ 51 more rows
…
