START AT Thu Mar 27 11:27:07 AM CET 2025
Now running panel ID: 201
[1] "Now running panel ID: 201"
[1] "Running on all chromosomes for panel ID: 201"
[1] "Bidning all rows complete for panel ID: 201"
[1] "Saving an original table with all columns"
# A tibble: 36 × 2
   clinvar_clnsig                                               n
   <chr>                                                    <int>
 1 0.02175                                                      1
 2 26.0                                                         1
 3 Affects                                                     19
 4 Benign                                                    5936
 5 Benign/Likely_benign                                      1621
 6 Benign/Likely_benign|other                                   4
 7 Benign|other                                                 1
 8 Conflicting_interpretations_of_pathogenicity              8566
 9 Conflicting_interpretations_of_pathogenicity|association     2
10 Conflicting_interpretations_of_pathogenicity|other           2
# ℹ 26 more rows
…
