START AT Thu Mar 27 11:21:55 AM CET 2025
Now running panel ID: 23
[1] "Now running panel ID: 23"
[1] "Running on all chromosomes for panel ID: 23"
[1] "Bidning all rows complete for panel ID: 23"
[1] "Saving an original table with all columns"
# A tibble: 64 × 2
   clinvar_clnsig                               n
   <chr>                                    <int>
 1 Affects                                     73
 2 Affects|association                          1
 3 Benign                                   20721
 4 Benign/Likely_benign                      6667
 5 Benign/Likely_benign|drug_response           2
 6 Benign/Likely_benign|drug_response|other     1
 7 Benign/Likely_benign|other                   5
 8 Benign/Likely_benign|other|risk_factor       1
 9 Benign/Likely_benign|risk_factor             1
10 Benign|association                           1
# ℹ 54 more rows
…
