START AT Thu Mar 27 06:21:58 PM CET 2025
Now running panel ID: 1372
[1] "Now running panel ID: 1372"
[1] "Running on all chromosomes for panel ID: 1372"
[1] "Bidning all rows complete for panel ID: 1372"
[1] "Saving an original table with all columns"
# A tibble: 50 × 2
   clinvar_clnsig                                               n
   <chr>                                                    <int>
 1 Affects                                                     37
 2 Benign                                                   10623
 3 Benign/Likely_benign                                      3038
 4 Benign/Likely_benign|other                                   6
 5 Benign/Likely_benign|risk_factor                             1
 6 Benign|other                                                 7
 7 Benign|risk_factor                                           1
 8 Conflicting_interpretations_of_pathogenicity             16101
 9 Conflicting_interpretations_of_pathogenicity|Affects         1
10 Conflicting_interpretations_of_pathogenicity|association     2
# ℹ 40 more rows
…
