START AT Thu Mar 27 11:25:35 AM CET 2025
Now running panel ID: 117
[1] "Now running panel ID: 117"
[1] "Running on all chromosomes for panel ID: 117"
[1] "Bidning all rows complete for panel ID: 117"
[1] "Saving an original table with all columns"
# A tibble: 50 × 2
   clinvar_clnsig                                           n
   <chr>                                                <int>
 1 Affects                                                 42
 2 Benign                                               11763
 3 Benign/Likely_benign                                  3772
 4 Benign/Likely_benign|other                               4
 5 Benign/Likely_benign|risk_factor                         1
 6 Benign|other                                             2
 7 Benign|protective                                        1
 8 Benign|risk_factor                                       1
 9 Conflicting_interpretations_of_pathogenicity         23487
10 Conflicting_interpretations_of_pathogenicity|Affects     1
# ℹ 40 more rows
…
