START AT Thu Mar 27 11:27:07 AM CET 2025
Now running panel ID: 215
[1] "Now running panel ID: 215"
[1] "Running on all chromosomes for panel ID: 215"
[1] "Bidning all rows complete for panel ID: 215"
[1] "Saving an original table with all columns"
# A tibble: 37 × 2
   clinvar_clnsig                                               n
   <chr>                                                    <int>
 1 6.564044                                                     1
 2 63860                                                        1
 3 Affects                                                     14
 4 Benign                                                    5084
 5 Benign/Likely_benign                                      1562
 6 Benign/Likely_benign|other                                   3
 7 Benign|other                                                 1
 8 Benign|risk_factor                                           1
 9 Conflicting_interpretations_of_pathogenicity              8302
10 Conflicting_interpretations_of_pathogenicity|association     1
# ℹ 27 more rows
…
