START AT Thu Mar 27 11:26:16 AM CET 2025
Now running panel ID: 542
[1] "Now running panel ID: 542"
[1] "Running on all chromosomes for panel ID: 542"
[1] "Bidning all rows complete for panel ID: 542"
[1] "Saving an original table with all columns"
# A tibble: 47 × 2
   clinvar_clnsig                                           n
   <chr>                                                <int>
 1 Affects                                                 41
 2 Affects|association                                      1
 3 Benign                                                9935
 4 Benign/Likely_benign                                  2971
 5 Benign/Likely_benign|other                               4
 6 Benign|other                                             2
 7 Benign|protective                                        1
 8 Benign|risk_factor                                       1
 9 Conflicting_interpretations_of_pathogenicity         19401
10 Conflicting_interpretations_of_pathogenicity|Affects     1
# ℹ 37 more rows
…
