START AT Thu Mar 27 03:35:38 PM CET 2025
Now running panel ID: 720
[1] "Now running panel ID: 720"
[1] "Running on all chromosomes for panel ID: 720"
[1] "Bidning all rows complete for panel ID: 720"
[1] "Saving an original table with all columns"
# A tibble: 50 × 2
   clinvar_clnsig                                           n
   <chr>                                                <int>
 1 610                                                      1
 2 Affects                                                 25
 3 Benign                                               11113
 4 Benign/Likely_benign                                  3455
 5 Benign/Likely_benign|other                               4
 6 Benign/Likely_benign|other|risk_factor                   1
 7 Benign|other                                             1
 8 Benign|protective                                        1
 9 Conflicting_interpretations_of_pathogenicity         25696
10 Conflicting_interpretations_of_pathogenicity|Affects     1
# ℹ 40 more rows
…
