START AT Thu Mar 27 05:09:08 PM CET 2025
Now running panel ID: 1313
[1] "Now running panel ID: 1313"
[1] "Running on all chromosomes for panel ID: 1313"
[1] "Bidning all rows complete for panel ID: 1313"
[1] "Saving an original table with all columns"
# A tibble: 31 × 2
   clinvar_clnsig                                                     n
   <chr>                                                          <int>
 1 Affects                                                            6
 2 Benign                                                          5332
 3 Benign/Likely_benign                                            1406
 4 Benign/Likely_benign|other                                         3
 5 Benign|risk_factor                                                 1
 6 Conflicting_interpretations_of_pathogenicity                   12781
 7 Conflicting_interpretations_of_pathogenicity|other                 2
 8 Conflicting_interpretations_of_pathogenicity|other|risk_factor     1
 9 Conflicting_interpretations_of_pathogenicity|risk_factor           3
10 Likely_benign                                                   8474
# ℹ 21 more rows
…
