START AT Thu Mar 27 11:21:55 AM CET 2025
Now running panel ID: 26
[1] "Now running panel ID: 26"
[1] "Running on all chromosomes for panel ID: 26"
[1] "Bidning all rows complete for panel ID: 26"
[1] "Saving an original table with all columns"
# A tibble: 65 × 2
   clinvar_clnsig                               n
   <chr>                                    <int>
 1 Affects                                     54
 2 Affects|association                          1
 3 Benign                                   17434
 4 Benign/Likely_benign                      5443
 5 Benign/Likely_benign|association             1
 6 Benign/Likely_benign|drug_response           2
 7 Benign/Likely_benign|drug_response|other     1
 8 Benign/Likely_benign|other                   4
 9 Benign/Likely_benign|other|risk_factor       1
10 Benign/Likely_benign|risk_factor             1
# ℹ 55 more rows
…
