START AT Thu Mar 27 11:26:16 AM CET 2025
Now running panel ID: 548
[1] "Now running panel ID: 548"
[1] "Running on all chromosomes for panel ID: 548"
[1] "Bidning all rows complete for panel ID: 548"
[1] "Saving an original table with all columns"
# A tibble: 55 × 2
   clinvar_clnsig                               n
   <chr>                                    <int>
 1 2898                                         1
 2 Affects                                     49
 3 Benign                                   13047
 4 Benign/Likely_benign                      4181
 5 Benign/Likely_benign|association             1
 6 Benign/Likely_benign|drug_response           2
 7 Benign/Likely_benign|drug_response|other     1
 8 Benign/Likely_benign|other                   1
 9 Benign/Likely_benign|other|risk_factor       1
10 Benign|drug_response                         1
# ℹ 45 more rows
…
