START AT Thu Mar 27 06:26:05 PM CET 2025
Now running panel ID: 1373
[1] "Now running panel ID: 1373"
[1] "Running on all chromosomes for panel ID: 1373"
[1] "Bidning all rows complete for panel ID: 1373"
[1] "Saving an original table with all columns"
# A tibble: 57 × 2
   clinvar_clnsig                             n
   <chr>                                  <int>
 1 Affects                                   47
 2 Benign                                 16248
 3 Benign/Likely_benign                    4997
 4 Benign/Likely_benign|association           1
 5 Benign/Likely_benign|other                 5
 6 Benign/Likely_benign|other|risk_factor     1
 7 Benign|association                         1
 8 Benign|confers_sensitivity                 1
 9 Benign|other                               1
10 Benign|risk_factor                         1
# ℹ 47 more rows
…
