START AT Thu Mar 27 06:06:12 PM CET 2025
Now running panel ID: 1361
[1] "Now running panel ID: 1361"
[1] "Running on all chromosomes for panel ID: 1361"
[1] "Bidning all rows complete for panel ID: 1361"
[1] "Saving an original table with all columns"
# A tibble: 55 × 2
   clinvar_clnsig                             n
   <chr>                                  <int>
 1 Affects                                   38
 2 Affects|association                        1
 3 Benign                                 13611
 4 Benign/Likely_benign                    4324
 5 Benign/Likely_benign|other                 6
 6 Benign/Likely_benign|other|risk_factor     1
 7 Benign/Likely_benign|risk_factor           1
 8 Benign|association                         1
 9 Benign|other                               3
10 Benign|risk_factor                         1
# ℹ 45 more rows
…
