START AT Thu Mar 27 11:27:07 AM CET 2025
Now running panel ID: 211
[1] "Now running panel ID: 211"
[1] "Running on all chromosomes for panel ID: 211"
[1] "Bidning all rows complete for panel ID: 211"
[1] "Saving an original table with all columns"
# A tibble: 33 × 2
   clinvar_clnsig                                               n
   <chr>                                                    <int>
 1 Affects                                                      8
 2 Benign                                                    5254
 3 Benign/Likely_benign                                      1639
 4 Benign/Likely_benign|other                                   3
 5 Benign|other                                                 1
 6 Conflicting_interpretations_of_pathogenicity              8101
 7 Conflicting_interpretations_of_pathogenicity|association     1
 8 Conflicting_interpretations_of_pathogenicity|other           2
 9 Conflicting_interpretations_of_pathogenicity|risk_factor     2
10 Likely_benign                                             7781
# ℹ 23 more rows
…
