START AT Thu Mar 27 04:46:51 PM CET 2025
Now running panel ID: 1141
[1] "Now running panel ID: 1141"
[1] "Running on all chromosomes for panel ID: 1141"
[1] "Bidning all rows complete for panel ID: 1141"
[1] "Saving an original table with all columns"
# A tibble: 37 × 2
   clinvar_clnsig                                               n
   <chr>                                                    <int>
 1 4838                                                         1
 2 Affects                                                     11
 3 Benign                                                    5890
 4 Benign/Likely_benign                                      1616
 5 Benign/Likely_benign|other                                   4
 6 Benign|other                                                 1
 7 Benign|risk_factor                                           1
 8 Conflicting_interpretations_of_pathogenicity             12876
 9 Conflicting_interpretations_of_pathogenicity|association     1
10 Conflicting_interpretations_of_pathogenicity|other           4
# ℹ 27 more rows
…
