START AT Thu Mar 27 11:25:35 AM CET 2025
Now running panel ID: 119
[1] "Now running panel ID: 119"
[1] "Running on all chromosomes for panel ID: 119"
[1] "Bidning all rows complete for panel ID: 119"
[1] "Saving an original table with all columns"
# A tibble: 48 × 2
   clinvar_clnsig                                               n
   <chr>                                                    <int>
 1 Affects                                                     47
 2 Benign                                                   12335
 3 Benign/Likely_benign                                      3779
 4 Benign/Likely_benign|other                                   5
 5 Benign|other                                                 6
 6 Benign|risk_factor                                           1
 7 Conflicting_interpretations_of_pathogenicity             22988
 8 Conflicting_interpretations_of_pathogenicity|Affects         1
 9 Conflicting_interpretations_of_pathogenicity|association     2
10 Conflicting_interpretations_of_pathogenicity|other           8
# ℹ 38 more rows
…
