START AT Thu Mar 27 11:23:32 AM CET 2025
Now running panel ID: 48
[1] "Now running panel ID: 48"
[1] "Running on all chromosomes for panel ID: 48"
[1] "Bidning all rows complete for panel ID: 48"
[1] "Saving an original table with all columns"
# A tibble: 66 × 2
   clinvar_clnsig                               n
   <chr>                                    <int>
 1 Affects                                     68
 2 Benign                                   21398
 3 Benign/Likely_benign                      6965
 4 Benign/Likely_benign|drug_response           2
 5 Benign/Likely_benign|drug_response|other     1
 6 Benign/Likely_benign|other                   6
 7 Benign/Likely_benign|risk_factor             1
 8 Benign|association                           1
 9 Benign|drug_response                         1
10 Benign|other                                 7
# ℹ 56 more rows
…
