START AT Thu Mar 27 06:13:35 PM CET 2025
Now running panel ID: 1365
[1] "Now running panel ID: 1365"
[1] "Running on all chromosomes for panel ID: 1365"
[1] "Bidning all rows complete for panel ID: 1365"
[1] "Saving an original table with all columns"
# A tibble: 62 × 2
   clinvar_clnsig                             n
   <chr>                                  <int>
 1 0                                          1
 2 Affects                                   62
 3 Benign                                 18981
 4 Benign/Likely_benign                    6051
 5 Benign/Likely_benign|association           1
 6 Benign/Likely_benign|other                 6
 7 Benign/Likely_benign|other|risk_factor     1
 8 Benign/Likely_benign|risk_factor           2
 9 Benign|association                         1
10 Benign|confers_sensitivity                 1
# ℹ 52 more rows
…
