START AT Thu Mar 27 04:11:06 PM CET 2025
Now running panel ID: 736
[1] "Now running panel ID: 736"
[1] "Running on all chromosomes for panel ID: 736"
[1] "Bidning all rows complete for panel ID: 736"
[1] "Saving an original table with all columns"
# A tibble: 43 × 2
   clinvar_clnsig                                               n
   <chr>                                                    <int>
 1 1.000000                                                     1
 2 Affects                                                     17
 3 Benign                                                    6635
 4 Benign/Likely_benign                                      2227
 5 Benign/Likely_benign|other                                   4
 6 Benign|other                                                 1
 7 Benign|risk_factor                                           1
 8 Conflicting_interpretations_of_pathogenicity             10112
 9 Conflicting_interpretations_of_pathogenicity|association     1
10 Conflicting_interpretations_of_pathogenicity|other           6
# ℹ 33 more rows
…
