START AT Thu Mar 27 11:27:07 AM CET 2025
Now running panel ID: 217
[1] "Now running panel ID: 217"
[1] "Running on all chromosomes for panel ID: 217"
[1] "Bidning all rows complete for panel ID: 217"
[1] "Saving an original table with all columns"
# A tibble: 36 × 2
   clinvar_clnsig                                               n
   <chr>                                                    <int>
 1 0.599000                                                     1
 2 Affects                                                     17
 3 Benign                                                    5375
 4 Benign/Likely_benign                                      1588
 5 Benign/Likely_benign|other                                   4
 6 Benign/Likely_benign|risk_factor                             1
 7 Benign|other                                                 1
 8 Benign|risk_factor                                           1
 9 Conflicting_interpretations_of_pathogenicity              8079
10 Conflicting_interpretations_of_pathogenicity|association     1
# ℹ 26 more rows
…
