START AT Thu Mar 27 04:47:55 PM CET 2025
Now running panel ID: 1207
[1] "Now running panel ID: 1207"
[1] "Running on all chromosomes for panel ID: 1207"
[1] "Bidning all rows complete for panel ID: 1207"
[1] "Saving an original table with all columns"
# A tibble: 38 × 2
   clinvar_clnsig                                         n
   <chr>                                              <int>
 1 0.39209                                                1
 2 2.430960e-05                                           1
 3 Affects                                               21
 4 Benign                                              6126
 5 Benign/Likely_benign                                1983
 6 Benign/Likely_benign|other                             5
 7 Benign|other                                           1
 8 Benign|risk_factor                                     1
 9 Conflicting_interpretations_of_pathogenicity        8993
10 Conflicting_interpretations_of_pathogenicity|other     2
# ℹ 28 more rows
…
