START AT Thu Mar 27 06:43:23 PM CET 2025
Now running panel ID: 1376
[1] "Now running panel ID: 1376"
[1] "Running on all chromosomes for panel ID: 1376"
[1] "Bidning all rows complete for panel ID: 1376"
[1] "Saving an original table with all columns"
# A tibble: 51 × 2
   clinvar_clnsig                                                           n
   <chr>                                                                <int>
 1 Affects                                                                 29
 2 Benign                                                               11957
 3 Benign/Likely_benign                                                  3820
 4 Benign/Likely_benign|other                                               5
 5 Benign|association                                                       1
 6 Benign|other                                                             1
 7 Benign|risk_factor                                                       1
 8 Conflicting_interpretations_of_pathogenicity                         23298
 9 Conflicting_interpretations_of_pathogenicity|association                 1
10 Conflicting_interpretations_of_pathogenicity|association|risk_factor     1
# ℹ 41 more rows
…
