START AT Thu Mar 27 05:47:54 PM CET 2025
Now running panel ID: 1348
[1] "Now running panel ID: 1348"
[1] "Running on all chromosomes for panel ID: 1348"
[1] "Bidning all rows complete for panel ID: 1348"
[1] "Saving an original table with all columns"
# A tibble: 53 × 2
   clinvar_clnsig                             n
   <chr>                                  <int>
 1 0                                          1
 2 0.64016                                    1
 3 Affects                                   37
 4 Affects|association                        1
 5 Benign                                 12162
 6 Benign/Likely_benign                    3776
 7 Benign/Likely_benign|other                 5
 8 Benign/Likely_benign|other|risk_factor     1
 9 Benign/Likely_benign|risk_factor           1
10 Benign|association                         1
# ℹ 43 more rows
…
