START AT Thu Mar 27 11:21:55 AM CET 2025
Now running panel ID: 25
[1] "Now running panel ID: 25"
[1] "Running on all chromosomes for panel ID: 25"
[1] "Bidning all rows complete for panel ID: 25"
[1] "Saving an original table with all columns"
# A tibble: 61 × 2
   clinvar_clnsig                       n
   <chr>                            <int>
 1 Affects                             65
 2 Benign                           18838
 3 Benign/Likely_benign              6192
 4 Benign/Likely_benign|other           5
 5 Benign/Likely_benign|risk_factor     2
 6 Benign|confers_sensitivity           1
 7 Benign|drug_response                 1
 8 Benign|other                         6
 9 Benign|protective                    1
10 Benign|risk_factor                   1
# ℹ 51 more rows
…
