START AT Thu Mar 27 11:27:07 AM CET 2025
Now running panel ID: 221
[1] "Now running panel ID: 221"
[1] "Running on all chromosomes for panel ID: 221"
[1] "Bidning all rows complete for panel ID: 221"
[1] "Saving an original table with all columns"
# A tibble: 34 × 2
   clinvar_clnsig                                               n
   <chr>                                                    <int>
 1 Affects                                                      7
 2 Benign                                                    5016
 3 Benign/Likely_benign                                      1304
 4 Benign/Likely_benign|other                                   3
 5 Benign|other                                                 1
 6 Benign|risk_factor                                           1
 7 Conflicting_interpretations_of_pathogenicity             11451
 8 Conflicting_interpretations_of_pathogenicity|association     1
 9 Conflicting_interpretations_of_pathogenicity|other           2
10 Conflicting_interpretations_of_pathogenicity|risk_factor     2
# ℹ 24 more rows
…
