START AT Thu Mar 27 05:16:17 PM CET 2025
Now running panel ID: 1319
[1] "Now running panel ID: 1319"
[1] "Running on all chromosomes for panel ID: 1319"
[1] "Bidning all rows complete for panel ID: 1319"
[1] "Saving an original table with all columns"
# A tibble: 46 × 2
   clinvar_clnsig                                               n
   <chr>                                                    <int>
 1 0.74275                                                      1
 2 Affects                                                     13
 3 Benign                                                    7713
 4 Benign/Likely_benign                                      2257
 5 Benign/Likely_benign|other                                   4
 6 Benign|association                                           1
 7 Benign|other                                                 2
 8 Benign|risk_factor                                           1
 9 Conflicting_interpretations_of_pathogenicity             15536
10 Conflicting_interpretations_of_pathogenicity|association     2
# ℹ 36 more rows
…
