START AT Thu Mar 27 05:47:38 PM CET 2025
Now running panel ID: 1347
[1] "Now running panel ID: 1347"
[1] "Running on all chromosomes for panel ID: 1347"
[1] "Bidning all rows complete for panel ID: 1347"
[1] "Saving an original table with all columns"
# A tibble: 55 × 2
   clinvar_clnsig                                   n
   <chr>                                        <int>
 1 Affects                                         46
 2 Affects|association                              1
 3 Benign                                       12478
 4 Benign/Likely_benign                          3975
 5 Benign/Likely_benign|other                       6
 6 Benign/Likely_benign|risk_factor                 1
 7 Benign|association                               1
 8 Benign|other                                     3
 9 Benign|risk_factor                               1
10 Conflicting_interpretations_of_pathogenicity 19444
# ℹ 45 more rows
…
