START AT Thu Mar 27 04:34:48 PM CET 2025
Now running panel ID: 921
[1] "Now running panel ID: 921"
[1] "Running on all chromosomes for panel ID: 921"
[1] "Bidning all rows complete for panel ID: 921"
[1] "Saving an original table with all columns"
# A tibble: 32 × 2
   clinvar_clnsig                                                     n
   <chr>                                                          <int>
 1 Affects                                                            5
 2 Benign                                                          5289
 3 Benign/Likely_benign                                            1430
 4 Benign/Likely_benign|other                                         3
 5 Benign/Likely_benign|risk_factor                                   1
 6 Conflicting_interpretations_of_pathogenicity                   12680
 7 Conflicting_interpretations_of_pathogenicity|other                 4
 8 Conflicting_interpretations_of_pathogenicity|other|risk_factor     1
 9 Conflicting_interpretations_of_pathogenicity|risk_factor           2
10 Likely_benign                                                   8141
# ℹ 22 more rows
…
