START AT Thu Mar 27 11:28:16 AM CET 2025
Now running panel ID: 224
[1] "Now running panel ID: 224"
[1] "Running on all chromosomes for panel ID: 224"
[1] "Bidning all rows complete for panel ID: 224"
[1] "Saving an original table with all columns"
# A tibble: 38 × 2
   clinvar_clnsig                                               n
   <chr>                                                    <int>
 1 0.31756338284746                                             1
 2 11.1918                                                      1
 3 Affects                                                     11
 4 Benign                                                    6041
 5 Benign/Likely_benign                                      1674
 6 Benign/Likely_benign|other                                   4
 7 Benign|other                                                 1
 8 Benign|risk_factor                                           1
 9 Conflicting_interpretations_of_pathogenicity              8401
10 Conflicting_interpretations_of_pathogenicity|association     1
# ℹ 28 more rows
…
